﻿Log file open, 12/06/22 18:05:31
LogWindows: Failed to load 'aqProf.dll' (GetLastError=126)
LogWindows: File 'aqProf.dll' does not exist
LogWindows: Failed to load 'VtuneApi.dll' (GetLastError=126)
LogWindows: File 'VtuneApi.dll' does not exist
LogWindows: Failed to load 'VtuneApi32e.dll' (GetLastError=126)
LogWindows: File 'VtuneApi32e.dll' does not exist
LogConsoleResponse: Display: Failed to find resolution value strings in scalability ini. Falling back to default.
LogConsoleResponse: Display: Failed to find resolution value strings in scalability ini. Falling back to default.
LogInit: Display: Running engine for game: HomeWork10_2_1
LogPlatformFile: Not using cached read wrapper
LogTaskGraph: Started task graph with 5 named threads and 23 total threads with 3 sets of task threads.
LogStats: Stats thread started at 0.187900
LogICUInternationalization: ICU TimeZone Detection - Raw Offset: +3:00, Platform Override: ''
LogInit: Display: Loading text-based GConfig....
LogPluginManager: Mounting plugin MeshPainting
LogPluginManager: Mounting plugin XGEController
LogPluginManager: Mounting plugin Paper2D
LogPluginManager: Mounting plugin LiveLink
LogPluginManager: Mounting plugin AISupport
LogPluginManager: Mounting plugin EnvironmentQueryEditor
LogPluginManager: Mounting plugin LightPropagationVolume
LogPluginManager: Mounting plugin GameplayCameras
LogPluginManager: Mounting plugin OodleNetwork
LogPluginManager: Mounting plugin OodleData
LogPluginManager: Mounting plugin CameraShakePreviewer
LogPluginManager: Mounting plugin AnimationSharing
LogPluginManager: Mounting plugin CLionSourceCodeAccess
LogPluginManager: Mounting plugin CodeLiteSourceCodeAccess
LogPluginManager: Mounting plugin GitSourceControl
LogPluginManager: Mounting plugin KDevelopSourceCodeAccess
LogPluginManager: Mounting plugin NullSourceCodeAccess
LogPluginManager: Mounting plugin PerforceSourceControl
LogPluginManager: Mounting plugin PixWinPlugin
LogPluginManager: Mounting plugin PlasticSourceControl
LogPluginManager: Mounting plugin PluginUtils
LogPluginManager: Mounting plugin PropertyAccessNode
LogPluginManager: Mounting plugin SubversionSourceControl
LogPluginManager: Mounting plugin RiderSourceCodeAccess
LogPluginManager: Mounting plugin TextureFormatOodle
LogPluginManager: Mounting plugin UObjectPlugin
LogPluginManager: Mounting plugin VisualStudioCodeSourceCodeAccess
LogPluginManager: Mounting plugin XCodeSourceCodeAccess
LogPluginManager: Mounting plugin VisualStudioSourceCodeAccess
LogPluginManager: Mounting plugin AssetManagerEditor
LogPluginManager: Mounting plugin CryptoKeys
LogPluginManager: Mounting plugin CurveEditorTools
LogPluginManager: Mounting plugin DataValidation
LogPluginManager: Mounting plugin FacialAnimation
LogPluginManager: Mounting plugin GameplayTagsEditor
LogPluginManager: Mounting plugin GeometryMode
LogPluginManager: Mounting plugin MaterialAnalyzer
LogPluginManager: Mounting plugin MacGraphicsSwitching
LogPluginManager: Mounting plugin MobileLauncherProfileWizard
LogPluginManager: Mounting plugin PluginBrowser
LogPluginManager: Mounting plugin SpeedTreeImporter
LogPluginManager: Mounting plugin DatasmithContent
LogPluginManager: Mounting plugin VariantManagerContent
LogPluginManager: Mounting plugin AlembicImporter
LogPluginManager: Mounting plugin AutomationUtils
LogPluginManager: Mounting plugin BackChannel
LogPluginManager: Mounting plugin ChaosCloth
LogPluginManager: Mounting plugin ChaosClothEditor
LogPluginManager: Mounting plugin ChaosEditor
LogPluginManager: Mounting plugin ChaosNiagara
LogPluginManager: Mounting plugin ChaosSolverPlugin
LogPluginManager: Mounting plugin CharacterAI
LogPluginManager: Mounting plugin GeometryCache
LogPluginManager: Mounting plugin GeometryCollectionPlugin
LogPluginManager: Mounting plugin Niagara
LogPluginManager: Mounting plugin GeometryProcessing
LogPluginManager: Mounting plugin MotoSynth
LogPluginManager: Mounting plugin OpenImageDenoise
LogPluginManager: Mounting plugin PlanarCut
LogPluginManager: Mounting plugin ProxyLODPlugin
LogPluginManager: Mounting plugin PlatformCrypto
LogPluginManager: Mounting plugin PythonScriptPlugin
LogPluginManager: Mounting plugin SkeletalReduction
LogPluginManager: Mounting plugin LuminPlatformFeatures
LogPluginManager: Mounting plugin MagicLeap
LogPluginManager: Mounting plugin MagicLeapLightEstimation
LogPluginManager: Mounting plugin MagicLeapMedia
LogPluginManager: Mounting plugin MagicLeapPassableWorld
LogPluginManager: Mounting plugin MLSDK
LogPluginManager: Mounting plugin AndroidMedia
LogPluginManager: Mounting plugin AvfMedia
LogPluginManager: Mounting plugin ImgMedia
LogPluginManager: Mounting plugin MediaCompositing
LogPluginManager: Mounting plugin MediaPlayerEditor
LogPluginManager: Mounting plugin WebMMedia
LogPluginManager: Mounting plugin WmfMedia
LogPluginManager: Mounting plugin TcpMessaging
LogPluginManager: Mounting plugin UdpMessaging
LogPluginManager: Mounting plugin ActorSequence
LogPluginManager: Mounting plugin LevelSequenceEditor
LogPluginManager: Mounting plugin MatineeToLevelSequence
LogPluginManager: Mounting plugin TemplateSequence
LogPluginManager: Mounting plugin OnlineSubsystem
LogPluginManager: Mounting plugin OnlineSubsystemNull
LogPluginManager: Mounting plugin OnlineSubsystemUtils
LogPluginManager: Mounting plugin LauncherChunkInstaller
LogPluginManager: Mounting plugin ActorLayerUtilities
LogPluginManager: Mounting plugin AndroidDeviceProfileSelector
LogPluginManager: Mounting plugin AndroidMoviePlayer
LogPluginManager: Mounting plugin AndroidPermission
LogPluginManager: Mounting plugin AppleImageUtils
LogPluginManager: Mounting plugin AppleMoviePlayer
LogPluginManager: Mounting plugin ArchVisCharacter
LogPluginManager: Mounting plugin AssetTags
LogPluginManager: Mounting plugin AudioCapture
LogPluginManager: Mounting plugin AudioSynesthesia
LogPluginManager: Mounting plugin CableComponent
LogPluginManager: Mounting plugin ChunkDownloader
LogPluginManager: Mounting plugin CustomMeshComponent
LogPluginManager: Mounting plugin EditableMesh
LogPluginManager: Mounting plugin ExampleDeviceProfileSelector
LogPluginManager: Mounting plugin GoogleCloudMessaging
LogPluginManager: Mounting plugin GooglePAD
LogPluginManager: Mounting plugin IOSDeviceProfileSelector
LogPluginManager: Mounting plugin LinuxDeviceProfileSelector
LogPluginManager: Mounting plugin LocationServicesBPLibrary
LogPluginManager: Mounting plugin MobilePatchingUtils
LogPluginManager: Mounting plugin OpenXR
LogPluginManager: Mounting plugin OpenXREyeTracker
LogPluginManager: Mounting plugin OpenXRHandTracking
LogPluginManager: Mounting plugin PhysXVehicles
LogPluginManager: Mounting plugin PostSplashScreen
LogPluginManager: Mounting plugin ScreenshotTools
LogPluginManager: Mounting plugin ProceduralMeshComponent
LogPluginManager: Mounting plugin PropertyAccessEditor
LogPluginManager: Mounting plugin RuntimePhysXCooking
LogPluginManager: Mounting plugin SignificanceManager
LogPluginManager: Mounting plugin SoundFields
LogPluginManager: Mounting plugin Synthesis
LogPluginManager: Mounting plugin WebMMoviePlayer
LogPluginManager: Mounting plugin WindowsMoviePlayer
LogPluginManager: Mounting plugin Takes
LogPluginManager: Mounting plugin ContentBrowserAssetDataSource
LogPluginManager: Mounting plugin ContentBrowserClassDataSource
LogPluginManager: Mounting plugin ContentBrowserFileDataSource
LogPluginManager: Mounting plugin OnlineSubsystemIOS
LogPluginManager: Mounting plugin OnlineSubsystemGooglePlay
LogPluginManager: Mounting plugin OculusVR
LogPluginManager: Mounting plugin SteamVR
PixWinPlugin: PIX capture plugin failed to initialize! Check that the process is launched from PIX.
LogInit: Using libcurl 7.55.1-DEV
LogInit:  - built for x86_64-pc-win32
LogInit:  - supports SSL with OpenSSL/1.1.1
LogInit:  - supports HTTP deflate (compression) using libz 1.2.8
LogInit:  - other features:
LogInit:      CURL_VERSION_SSL
LogInit:      CURL_VERSION_LIBZ
LogInit:      CURL_VERSION_IPV6
LogInit:      CURL_VERSION_ASYNCHDNS
LogInit:      CURL_VERSION_LARGEFILE
LogInit:      CURL_VERSION_IDN
LogInit:  CurlRequestOptions (configurable via config and command line):
LogInit:  - bVerifyPeer = true  - Libcurl will verify peer certificate
LogInit:  - bUseHttpProxy = false  - Libcurl will NOT use HTTP proxy
LogInit:  - bDontReuseConnections = false  - Libcurl will reuse connections
LogInit:  - MaxHostConnections = 16  - Libcurl will limit the number of connections to a host
LogInit:  - LocalHostAddr = Default
LogInit:  - BufferSize = 65536
LogOnline: OSS: Creating online subsystem instance for: NULL
LogInit: WinSock: version 1.1 (2.2), MaxSocks=32767, MaxUdp=65467
LogOnline: OSS: TryLoadSubsystemAndSetDefault: Loaded subsystem for module [NULL]
LogOculusPluginWrapper: OculusPlugin initialized successfully
LogHMD: Failed initializing OVRPlugin 1.59.0
LogInit: Build: ++UE4+Release-4.27-CL-18319896
LogInit: Engine Version: 4.27.2-18319896+++UE4+Release-4.27
LogInit: Compatible Engine Version: 4.27.0-17155196+++UE4+Release-4.27
LogInit: Net CL: 17155196
LogInit: OS: Windows 10 (Release 1909) (), CPU: Intel(R) Core(TM) i5-9300H CPU @ 2.40GHz, GPU: Intel(R) UHD Graphics 630
LogInit: Compiled (64-bit): Nov 30 2021 07:12:08
LogInit: Compiled with Visual C++: 19.24.28315.00
LogInit: Build Configuration: Development
LogInit: Branch Name: ++UE4+Release-4.27
LogInit: Command Line: 
LogInit: Base Directory: D:/Epic/UE_4.27/Engine/Binaries/Win64/
LogInit: Allocator: TBB
LogInit: Installed Engine Build: 1
LogDevObjectVersion: Number of dev versions registered: 29
LogDevObjectVersion:   Dev-Blueprints (B0D832E4-1F89-4F0D-ACCF-7EB736FD4AA2): 10
LogDevObjectVersion:   Dev-Build (E1C64328-A22C-4D53-A36C-8E866417BD8C): 0
LogDevObjectVersion:   Dev-Core (375EC13C-06E4-48FB-B500-84F0262A717E): 4
LogDevObjectVersion:   Dev-Editor (E4B068ED-F494-42E9-A231-DA0B2E46BB41): 40
LogDevObjectVersion:   Dev-Framework (CFFC743F-43B0-4480-9391-14DF171D2073): 37
LogDevObjectVersion:   Dev-Mobile (B02B49B5-BB20-44E9-A304-32B752E40360): 3
LogDevObjectVersion:   Dev-Networking (A4E4105C-59A1-49B5-A7C5-40C4547EDFEE): 0
LogDevObjectVersion:   Dev-Online (39C831C9-5AE6-47DC-9A44-9C173E1C8E7C): 0
LogDevObjectVersion:   Dev-Physics (78F01B33-EBEA-4F98-B9B4-84EACCB95AA2): 14
LogDevObjectVersion:   Dev-Platform (6631380F-2D4D-43E0-8009-CF276956A95A): 0
LogDevObjectVersion:   Dev-Rendering (12F88B9F-8875-4AFC-A67C-D90C383ABD29): 45
LogDevObjectVersion:   Dev-Sequencer (7B5AE74C-D270-4C10-A958-57980B212A5A): 13
LogDevObjectVersion:   Dev-VR (D7296918-1DD6-4BDD-9DE2-64A83CC13884): 3
LogDevObjectVersion:   Dev-LoadTimes (C2A15278-BFE7-4AFE-6C17-90FF531DF755): 1
LogDevObjectVersion:   Private-Geometry (6EACA3D4-40EC-4CC1-B786-8BED09428FC5): 3
LogDevObjectVersion:   Dev-AnimPhys (29E575DD-E0A3-4627-9D10-D276232CDCEA): 17
LogDevObjectVersion:   Dev-Anim (AF43A65D-7FD3-4947-9873-3E8ED9C1BB05): 15
LogDevObjectVersion:   Dev-ReflectionCapture (6B266CEC-1EC7-4B8F-A30B-E4D90942FC07): 1
LogDevObjectVersion:   Dev-Automation (0DF73D61-A23F-47EA-B727-89E90C41499A): 1
LogDevObjectVersion:   FortniteMain (601D1886-AC64-4F84-AA16-D3DE0DEAC7D6): 47
LogDevObjectVersion:   FortniteRelease (E7086368-6B23-4C58-8439-1B7016265E91): 1
LogDevObjectVersion:   Dev-Enterprise (9DFFBCD6-494F-0158-E221-12823C92A888): 10
LogDevObjectVersion:   Dev-Niagara (F2AED0AC-9AFE-416F-8664-AA7FFA26D6FC): 1
LogDevObjectVersion:   Dev-Destruction (174F1F0B-B4C6-45A5-B13F-2EE8D0FB917D): 10
LogDevObjectVersion:   Dev-Physics-Ext (35F94A83-E258-406C-A318-09F59610247C): 41
LogDevObjectVersion:   Dev-PhysicsMaterial-Chaos (B68FC16E-8B1B-42E2-B453-215C058844FE): 1
LogDevObjectVersion:   Dev-CineCamera (B2E18506-4273-CFC2-A54E-F4BB758BBA07): 1
LogDevObjectVersion:   Dev-VirtualProduction (64F58936-FD1B-42BA-BA96-7289D5D0FA4E): 1
LogDevObjectVersion:   Dev-MediaFramework (6F0ED827-A609-4895-9C91-998D90180EA4): 2
LogInit: Presizing for max 25165824 objects, including 0 objects not considered by GC, pre-allocating 0 bytes for permanent pool.
LogConfig: Applying CVar settings from Section [/Script/Engine.StreamingSettings] File [D:/Документы/Unreal Projects/HomeWork10_2_1/Saved/Config/Windows/Engine.ini]
LogConfig: Setting CVar [[s.MinBulkDataSizeForAsyncLoading:131072]]
LogConfig: Setting CVar [[s.AsyncLoadingThreadEnabled:0]]
LogConfig: Setting CVar [[s.EventDrivenLoaderEnabled:1]]
LogConfig: Setting CVar [[s.WarnIfTimeLimitExceeded:0]]
LogConfig: Setting CVar [[s.TimeLimitExceededMultiplier:1.5]]
LogConfig: Setting CVar [[s.TimeLimitExceededMinTime:0.005]]
LogConfig: Setting CVar [[s.UseBackgroundLevelStreaming:1]]
LogConfig: Setting CVar [[s.PriorityAsyncLoadingExtraTime:15.0]]
LogConfig: Setting CVar [[s.LevelStreamingActorsUpdateTimeLimit:5.0]]
LogConfig: Setting CVar [[s.PriorityLevelStreamingActorsUpdateExtraTime:5.0]]
LogConfig: Setting CVar [[s.LevelStreamingComponentsRegistrationGranularity:10]]
LogConfig: Setting CVar [[s.UnregisterComponentsTimeLimit:1.0]]
LogConfig: Setting CVar [[s.LevelStreamingComponentsUnregistrationGranularity:5]]
LogConfig: Setting CVar [[s.FlushStreamingOnExit:1]]
LogInit: Object subsystem initialized
LogConfig: Setting CVar [[con.DebugEarlyDefault:1]]
LogConfig: Setting CVar [[r.setres:1280x720]]
[2022.12.06-15.05.32:182][  0]LogConfig: Setting CVar [[r.VSync:0]]
[2022.12.06-15.05.32:182][  0]LogConfig: Setting CVar [[r.RHICmdBypass:0]]
[2022.12.06-15.05.32:182][  0]LogConfig: Applying CVar settings from Section [/Script/Engine.RendererSettings] File [D:/Документы/Unreal Projects/HomeWork10_2_1/Saved/Config/Windows/Engine.ini]
[2022.12.06-15.05.32:182][  0]LogConfig: Setting CVar [[r.GPUCrashDebugging:0]]
[2022.12.06-15.05.32:182][  0]LogConfig: Applying CVar settings from Section [/Script/Engine.RendererOverrideSettings] File [D:/Документы/Unreal Projects/HomeWork10_2_1/Saved/Config/Windows/Engine.ini]
[2022.12.06-15.05.32:182][  0]LogConfig: Applying CVar settings from Section [/Script/Engine.StreamingSettings] File [D:/Документы/Unreal Projects/HomeWork10_2_1/Saved/Config/Windows/Engine.ini]
[2022.12.06-15.05.32:182][  0]LogConfig: Setting CVar [[s.MinBulkDataSizeForAsyncLoading:131072]]
[2022.12.06-15.05.32:182][  0]LogConfig: Setting CVar [[s.AsyncLoadingThreadEnabled:0]]
[2022.12.06-15.05.32:182][  0]LogConfig: Setting CVar [[s.EventDrivenLoaderEnabled:1]]
[2022.12.06-15.05.32:182][  0]LogConfig: Setting CVar [[s.WarnIfTimeLimitExceeded:0]]
[2022.12.06-15.05.32:182][  0]LogConfig: Setting CVar [[s.TimeLimitExceededMultiplier:1.5]]
[2022.12.06-15.05.32:182][  0]LogConfig: Setting CVar [[s.TimeLimitExceededMinTime:0.005]]
[2022.12.06-15.05.32:182][  0]LogConfig: Setting CVar [[s.UseBackgroundLevelStreaming:1]]
[2022.12.06-15.05.32:182][  0]LogConfig: Setting CVar [[s.PriorityAsyncLoadingExtraTime:15.0]]
[2022.12.06-15.05.32:182][  0]LogConfig: Setting CVar [[s.LevelStreamingActorsUpdateTimeLimit:5.0]]
[2022.12.06-15.05.32:182][  0]LogConfig: Setting CVar [[s.PriorityLevelStreamingActorsUpdateExtraTime:5.0]]
[2022.12.06-15.05.32:182][  0]LogConfig: Setting CVar [[s.LevelStreamingComponentsRegistrationGranularity:10]]
[2022.12.06-15.05.32:182][  0]LogConfig: Setting CVar [[s.UnregisterComponentsTimeLimit:1.0]]
[2022.12.06-15.05.32:182][  0]LogConfig: Setting CVar [[s.LevelStreamingComponentsUnregistrationGranularity:5]]
[2022.12.06-15.05.32:182][  0]LogConfig: Setting CVar [[s.FlushStreamingOnExit:1]]
[2022.12.06-15.05.32:182][  0]LogConfig: Applying CVar settings from Section [/Script/Engine.GarbageCollectionSettings] File [D:/Документы/Unreal Projects/HomeWork10_2_1/Saved/Config/Windows/Engine.ini]
[2022.12.06-15.05.32:182][  0]LogConfig: Setting CVar [[gc.MaxObjectsNotConsideredByGC:1]]
[2022.12.06-15.05.32:182][  0]LogConfig: Setting CVar [[gc.SizeOfPermanentObjectPool:0]]
[2022.12.06-15.05.32:182][  0]LogConfig: Setting CVar [[gc.FlushStreamingOnGC:0]]
[2022.12.06-15.05.32:182][  0]LogConfig: Setting CVar [[gc.NumRetriesBeforeForcingGC:10]]
[2022.12.06-15.05.32:182][  0]LogConfig: Setting CVar [[gc.AllowParallelGC:1]]
[2022.12.06-15.05.32:182][  0]LogConfig: Setting CVar [[gc.TimeBetweenPurgingPendingKillObjects:61.1]]
[2022.12.06-15.05.32:182][  0]LogConfig: Setting CVar [[gc.MaxObjectsInEditor:25165824]]
[2022.12.06-15.05.32:182][  0]LogConfig: Setting CVar [[gc.IncrementalBeginDestroyEnabled:1]]
[2022.12.06-15.05.32:182][  0]LogConfig: Setting CVar [[gc.CreateGCClusters:1]]
[2022.12.06-15.05.32:182][  0]LogConfig: Setting CVar [[gc.MinGCClusterSize:5]]
[2022.12.06-15.05.32:182][  0]LogConfig: Setting CVar [[gc.ActorClusteringEnabled:0]]
[2022.12.06-15.05.32:182][  0]LogConfig: Setting CVar [[gc.BlueprintClusteringEnabled:0]]
[2022.12.06-15.05.32:182][  0]LogConfig: Setting CVar [[gc.UseDisregardForGCOnDedicatedServers:0]]
[2022.12.06-15.05.32:182][  0]LogConfig: Setting CVar [[gc.MultithreadedDestructionEnabled:1]]
[2022.12.06-15.05.32:182][  0]LogConfig: Applying CVar settings from Section [/Script/Engine.NetworkSettings] File [D:/Документы/Unreal Projects/HomeWork10_2_1/Saved/Config/Windows/Engine.ini]
[2022.12.06-15.05.32:182][  0]LogConfig: Applying CVar settings from Section [/Script/UnrealEd.CookerSettings] File [D:/Документы/Unreal Projects/HomeWork10_2_1/Saved/Config/Windows/Engine.ini]
[2022.12.06-15.05.32:189][  0]LogConfig: Applying CVar settings from Section [ViewDistanceQuality@3] File [D:/Документы/Unreal Projects/HomeWork10_2_1/Saved/Config/Windows/Scalability.ini]
[2022.12.06-15.05.32:189][  0]LogConfig: Setting CVar [[r.SkeletalMeshLODBias:0]]
[2022.12.06-15.05.32:189][  0]LogConfig: Setting CVar [[r.ViewDistanceScale:1.0]]
[2022.12.06-15.05.32:189][  0]LogConfig: Applying CVar settings from Section [AntiAliasingQuality@3] File [D:/Документы/Unreal Projects/HomeWork10_2_1/Saved/Config/Windows/Scalability.ini]
[2022.12.06-15.05.32:189][  0]LogConfig: Setting CVar [[r.PostProcessAAQuality:4]]
[2022.12.06-15.05.32:189][  0]LogConfig: Applying CVar settings from Section [ShadowQuality@3] File [D:/Документы/Unreal Projects/HomeWork10_2_1/Saved/Config/Windows/Scalability.ini]
[2022.12.06-15.05.32:189][  0]LogConfig: Setting CVar [[r.LightFunctionQuality:1]]
[2022.12.06-15.05.32:189][  0]LogConfig: Setting CVar [[r.ShadowQuality:5]]
[2022.12.06-15.05.32:189][  0]LogConfig: Setting CVar [[r.Shadow.CSM.MaxCascades:10]]
[2022.12.06-15.05.32:189][  0]LogConfig: Setting CVar [[r.Shadow.MaxResolution:2048]]
[2022.12.06-15.05.32:189][  0]LogConfig: Setting CVar [[r.Shadow.MaxCSMResolution:2048]]
[2022.12.06-15.05.32:189][  0]LogConfig: Setting CVar [[r.Shadow.RadiusThreshold:0.01]]
[2022.12.06-15.05.32:189][  0]LogConfig: Setting CVar [[r.Shadow.DistanceScale:1.0]]
[2022.12.06-15.05.32:189][  0]LogConfig: Setting CVar [[r.Shadow.CSM.TransitionScale:1.0]]
[2022.12.06-15.05.32:189][  0]LogConfig: Setting CVar [[r.Shadow.PreShadowResolutionFactor:1.0]]
[2022.12.06-15.05.32:189][  0]LogConfig: Setting CVar [[r.DistanceFieldShadowing:1]]
[2022.12.06-15.05.32:189][  0]LogConfig: Setting CVar [[r.DistanceFieldAO:1]]
[2022.12.06-15.05.32:189][  0]LogConfig: Setting CVar [[r.AOQuality:2]]
[2022.12.06-15.05.32:189][  0]LogConfig: Setting CVar [[r.VolumetricFog:1]]
[2022.12.06-15.05.32:189][  0]LogConfig: Setting CVar [[r.VolumetricFog.GridPixelSize:8]]
[2022.12.06-15.05.32:189][  0]LogConfig: Setting CVar [[r.VolumetricFog.GridSizeZ:128]]
[2022.12.06-15.05.32:189][  0]LogConfig: Setting CVar [[r.VolumetricFog.HistoryMissSupersampleCount:4]]
[2022.12.06-15.05.32:189][  0]LogConfig: Setting CVar [[r.LightMaxDrawDistanceScale:1]]
[2022.12.06-15.05.32:189][  0]LogConfig: Setting CVar [[r.CapsuleShadows:1]]
[2022.12.06-15.05.32:189][  0]LogConfig: Applying CVar settings from Section [PostProcessQuality@3] File [D:/Документы/Unreal Projects/HomeWork10_2_1/Saved/Config/Windows/Scalability.ini]
[2022.12.06-15.05.32:189][  0]LogConfig: Setting CVar [[r.MotionBlurQuality:4]]
[2022.12.06-15.05.32:189][  0]LogConfig: Setting CVar [[r.AmbientOcclusionMipLevelFactor:0.4]]
[2022.12.06-15.05.32:189][  0]LogConfig: Setting CVar [[r.AmbientOcclusionMaxQuality:100]]
[2022.12.06-15.05.32:189][  0]LogConfig: Setting CVar [[r.AmbientOcclusionLevels:-1]]
[2022.12.06-15.05.32:189][  0]LogConfig: Setting CVar [[r.AmbientOcclusionRadiusScale:1.0]]
[2022.12.06-15.05.32:189][  0]LogConfig: Setting CVar [[r.DepthOfFieldQuality:2]]
[2022.12.06-15.05.32:189][  0]LogConfig: Setting CVar [[r.RenderTargetPoolMin:400]]
[2022.12.06-15.05.32:189][  0]LogConfig: Setting CVar [[r.LensFlareQuality:2]]
[2022.12.06-15.05.32:189][  0]LogConfig: Setting CVar [[r.SceneColorFringeQuality:1]]
[2022.12.06-15.05.32:189][  0]LogConfig: Setting CVar [[r.EyeAdaptationQuality:2]]
[2022.12.06-15.05.32:189][  0]LogConfig: Setting CVar [[r.BloomQuality:5]]
[2022.12.06-15.05.32:189][  0]LogConfig: Setting CVar [[r.FastBlurThreshold:100]]
[2022.12.06-15.05.32:189][  0]LogConfig: Setting CVar [[r.Upscale.Quality:3]]
[2022.12.06-15.05.32:189][  0]LogConfig: Setting CVar [[r.Tonemapper.GrainQuantization:1]]
[2022.12.06-15.05.32:189][  0]LogConfig: Setting CVar [[r.LightShaftQuality:1]]
[2022.12.06-15.05.32:189][  0]LogConfig: Setting CVar [[r.Filter.SizeScale:1]]
[2022.12.06-15.05.32:189][  0]LogConfig: Setting CVar [[r.Tonemapper.Quality:5]]
[2022.12.06-15.05.32:189][  0]LogConfig: Setting CVar [[r.DOF.Gather.AccumulatorQuality:1        ; higher gathering accumulator quality]]
[2022.12.06-15.05.32:189][  0]LogConfig: Setting CVar [[r.DOF.Gather.PostfilterMethod:1          ; Median3x3 postfilering method]]
[2022.12.06-15.05.32:189][  0]LogConfig: Setting CVar [[r.DOF.Gather.EnableBokehSettings:0       ; no bokeh simulation when gathering]]
[2022.12.06-15.05.32:190][  0]LogConfig: Setting CVar [[r.DOF.Gather.RingCount:4                 ; medium number of samples when gathering]]
[2022.12.06-15.05.32:190][  0]LogConfig: Setting CVar [[r.DOF.Scatter.ForegroundCompositing:1    ; additive foreground scattering]]
[2022.12.06-15.05.32:190][  0]LogConfig: Setting CVar [[r.DOF.Scatter.BackgroundCompositing:2    ; additive background scattering]]
[2022.12.06-15.05.32:190][  0]LogConfig: Setting CVar [[r.DOF.Scatter.EnableBokehSettings:1      ; bokeh simulation when scattering]]
[2022.12.06-15.05.32:190][  0]LogConfig: Setting CVar [[r.DOF.Scatter.MaxSpriteRatio:0.1         ; only a maximum of 10% of scattered bokeh]]
[2022.12.06-15.05.32:190][  0]LogConfig: Setting CVar [[r.DOF.Recombine.Quality:1                ; cheap slight out of focus]]
[2022.12.06-15.05.32:190][  0]LogConfig: Setting CVar [[r.DOF.Recombine.EnableBokehSettings:0    ; no bokeh simulation on slight out of focus]]
[2022.12.06-15.05.32:190][  0]LogConfig: Setting CVar [[r.DOF.TemporalAAQuality:1                ; more stable temporal accumulation]]
[2022.12.06-15.05.32:190][  0]LogConfig: Setting CVar [[r.DOF.Kernel.MaxForegroundRadius:0.025]]
[2022.12.06-15.05.32:190][  0]LogConfig: Setting CVar [[r.DOF.Kernel.MaxBackgroundRadius:0.025]]
[2022.12.06-15.05.32:190][  0]LogConfig: Applying CVar settings from Section [TextureQuality@3] File [D:/Документы/Unreal Projects/HomeWork10_2_1/Saved/Config/Windows/Scalability.ini]
[2022.12.06-15.05.32:190][  0]LogConfig: Setting CVar [[r.Streaming.MipBias:0]]
[2022.12.06-15.05.32:190][  0]LogConfig: Setting CVar [[r.Streaming.AmortizeCPUToGPUCopy:0]]
[2022.12.06-15.05.32:190][  0]LogConfig: Setting CVar [[r.Streaming.MaxNumTexturesToStreamPerFrame:0]]
[2022.12.06-15.05.32:190][  0]LogConfig: Setting CVar [[r.Streaming.Boost:1]]
[2022.12.06-15.05.32:190][  0]LogConfig: Setting CVar [[r.MaxAnisotropy:8]]
[2022.12.06-15.05.32:190][  0]LogConfig: Setting CVar [[r.VT.MaxAnisotropy:8]]
[2022.12.06-15.05.32:190][  0]LogConfig: Setting CVar [[r.Streaming.LimitPoolSizeToVRAM:0]]
[2022.12.06-15.05.32:190][  0]LogConfig: Setting CVar [[r.Streaming.PoolSize:1000]]
[2022.12.06-15.05.32:190][  0]LogConfig: Setting CVar [[r.Streaming.MaxEffectiveScreenSize:0]]
[2022.12.06-15.05.32:190][  0]LogConfig: Applying CVar settings from Section [EffectsQuality@3] File [D:/Документы/Unreal Projects/HomeWork10_2_1/Saved/Config/Windows/Scalability.ini]
[2022.12.06-15.05.32:190][  0]LogConfig: Setting CVar [[r.TranslucencyLightingVolumeDim:64]]
[2022.12.06-15.05.32:190][  0]LogConfig: Setting CVar [[r.RefractionQuality:2]]
[2022.12.06-15.05.32:190][  0]LogConfig: Setting CVar [[r.SSR.Quality:3]]
[2022.12.06-15.05.32:190][  0]LogConfig: Setting CVar [[r.SSR.HalfResSceneColor:0]]
[2022.12.06-15.05.32:190][  0]LogConfig: Setting CVar [[r.SceneColorFormat:4]]
[2022.12.06-15.05.32:190][  0]LogConfig: Setting CVar [[r.DetailMode:2]]
[2022.12.06-15.05.32:190][  0]LogConfig: Setting CVar [[r.TranslucencyVolumeBlur:1]]
[2022.12.06-15.05.32:190][  0]LogConfig: Setting CVar [[r.MaterialQualityLevel:1 ; High quality]]
[2022.12.06-15.05.32:190][  0]LogConfig: Setting CVar [[r.AnisotropicMaterials:1]]
[2022.12.06-15.05.32:190][  0]LogConfig: Setting CVar [[r.SSS.Scale:1]]
[2022.12.06-15.05.32:190][  0]LogConfig: Setting CVar [[r.SSS.SampleSet:2]]
[2022.12.06-15.05.32:190][  0]LogConfig: Setting CVar [[r.SSS.Quality:1]]
[2022.12.06-15.05.32:190][  0]LogConfig: Setting CVar [[r.SSS.HalfRes:0]]
[2022.12.06-15.05.32:190][  0]LogConfig: Setting CVar [[r.SSGI.Quality:3]]
[2022.12.06-15.05.32:190][  0]LogConfig: Setting CVar [[r.EmitterSpawnRateScale:1.0]]
[2022.12.06-15.05.32:190][  0]LogConfig: Setting CVar [[r.ParticleLightQuality:2]]
[2022.12.06-15.05.32:190][  0]LogConfig: Setting CVar [[r.SkyAtmosphere.AerialPerspectiveLUT.FastApplyOnOpaque:1 ; Always have FastSkyLUT 1 in this case to avoid wrong sky]]
[2022.12.06-15.05.32:190][  0]LogConfig: Setting CVar [[r.SkyAtmosphere.AerialPerspectiveLUT.SampleCountMaxPerSlice:4]]
[2022.12.06-15.05.32:190][  0]LogConfig: Setting CVar [[r.SkyAtmosphere.AerialPerspectiveLUT.DepthResolution:16.0]]
[2022.12.06-15.05.32:190][  0]LogConfig: Setting CVar [[r.SkyAtmosphere.FastSkyLUT:1]]
[2022.12.06-15.05.32:190][  0]LogConfig: Setting CVar [[r.SkyAtmosphere.FastSkyLUT.SampleCountMin:4.0]]
[2022.12.06-15.05.32:190][  0]LogConfig: Setting CVar [[r.SkyAtmosphere.FastSkyLUT.SampleCountMax:128.0]]
[2022.12.06-15.05.32:190][  0]LogConfig: Setting CVar [[r.SkyAtmosphere.SampleCountMin:4.0]]
[2022.12.06-15.05.32:190][  0]LogConfig: Setting CVar [[r.SkyAtmosphere.SampleCountMax:128.0]]
[2022.12.06-15.05.32:190][  0]LogConfig: Setting CVar [[r.SkyAtmosphere.TransmittanceLUT.UseSmallFormat:0]]
[2022.12.06-15.05.32:190][  0]LogConfig: Setting CVar [[r.SkyAtmosphere.TransmittanceLUT.SampleCount:10.0]]
[2022.12.06-15.05.32:190][  0]LogConfig: Setting CVar [[r.SkyAtmosphere.MultiScatteringLUT.SampleCount:15.0]]
[2022.12.06-15.05.32:190][  0]LogConfig: Setting CVar [[r.SkyLight.RealTimeReflectionCapture:1]]
[2022.12.06-15.05.32:190][  0]LogConfig: Applying CVar settings from Section [FoliageQuality@3] File [D:/Документы/Unreal Projects/HomeWork10_2_1/Saved/Config/Windows/Scalability.ini]
[2022.12.06-15.05.32:190][  0]LogConfig: Setting CVar [[foliage.DensityScale:1.0]]
[2022.12.06-15.05.32:190][  0]LogConfig: Setting CVar [[grass.DensityScale:1.0]]
[2022.12.06-15.05.32:190][  0]LogConfig: Applying CVar settings from Section [ShadingQuality@3] File [D:/Документы/Unreal Projects/HomeWork10_2_1/Saved/Config/Windows/Scalability.ini]
[2022.12.06-15.05.32:190][  0]LogConfig: Setting CVar [[r.HairStrands.SkyLighting.IntegrationType:2]]
[2022.12.06-15.05.32:190][  0]LogConfig: Setting CVar [[r.HairStrands.SkyAO.SampleCount:4]]
[2022.12.06-15.05.32:190][  0]LogConfig: Setting CVar [[r.HairStrands.Visibility.MSAA.SamplePerPixel:4]]
[2022.12.06-15.05.32:190][  0]LogInit: Selected Device Profile: [Windows]
[2022.12.06-15.05.32:190][  0]LogInit: Applying CVar settings loaded from the selected device profile: [Windows]
[2022.12.06-15.05.32:190][  0]LogHAL: Display: Platform has ~ 32 GB [34194698240 / 34359738368 / 32], which maps to Largest [LargestMinGB=32, LargerMinGB=12, DefaultMinGB=8, SmallerMinGB=6, SmallestMinGB=0)
[2022.12.06-15.05.32:190][  0]LogInit: Going up to parent DeviceProfile []
[2022.12.06-15.05.32:190][  0]LogConfig: Applying CVar settings from Section [ViewDistanceQuality@3] File [D:/Документы/Unreal Projects/HomeWork10_2_1/Saved/Config/Windows/Scalability.ini]
[2022.12.06-15.05.32:190][  0]LogConfig: Setting CVar [[r.SkeletalMeshLODBias:0]]
[2022.12.06-15.05.32:190][  0]LogConfig: Setting CVar [[r.ViewDistanceScale:1.0]]
[2022.12.06-15.05.32:190][  0]LogConfig: Applying CVar settings from Section [AntiAliasingQuality@3] File [D:/Документы/Unreal Projects/HomeWork10_2_1/Saved/Config/Windows/Scalability.ini]
[2022.12.06-15.05.32:190][  0]LogConfig: Setting CVar [[r.PostProcessAAQuality:4]]
[2022.12.06-15.05.32:190][  0]LogConfig: Applying CVar settings from Section [ShadowQuality@3] File [D:/Документы/Unreal Projects/HomeWork10_2_1/Saved/Config/Windows/Scalability.ini]
[2022.12.06-15.05.32:190][  0]LogConfig: Setting CVar [[r.LightFunctionQuality:1]]
[2022.12.06-15.05.32:190][  0]LogConfig: Setting CVar [[r.ShadowQuality:5]]
[2022.12.06-15.05.32:190][  0]LogConfig: Setting CVar [[r.Shadow.CSM.MaxCascades:10]]
[2022.12.06-15.05.32:190][  0]LogConfig: Setting CVar [[r.Shadow.MaxResolution:2048]]
[2022.12.06-15.05.32:190][  0]LogConfig: Setting CVar [[r.Shadow.MaxCSMResolution:2048]]
[2022.12.06-15.05.32:190][  0]LogConfig: Setting CVar [[r.Shadow.RadiusThreshold:0.01]]
[2022.12.06-15.05.32:190][  0]LogConfig: Setting CVar [[r.Shadow.DistanceScale:1.0]]
[2022.12.06-15.05.32:190][  0]LogConfig: Setting CVar [[r.Shadow.CSM.TransitionScale:1.0]]
[2022.12.06-15.05.32:190][  0]LogConfig: Setting CVar [[r.Shadow.PreShadowResolutionFactor:1.0]]
[2022.12.06-15.05.32:190][  0]LogConfig: Setting CVar [[r.DistanceFieldShadowing:1]]
[2022.12.06-15.05.32:190][  0]LogConfig: Setting CVar [[r.DistanceFieldAO:1]]
[2022.12.06-15.05.32:190][  0]LogConfig: Setting CVar [[r.AOQuality:2]]
[2022.12.06-15.05.32:190][  0]LogConfig: Setting CVar [[r.VolumetricFog:1]]
[2022.12.06-15.05.32:190][  0]LogConfig: Setting CVar [[r.VolumetricFog.GridPixelSize:8]]
[2022.12.06-15.05.32:190][  0]LogConfig: Setting CVar [[r.VolumetricFog.GridSizeZ:128]]
[2022.12.06-15.05.32:190][  0]LogConfig: Setting CVar [[r.VolumetricFog.HistoryMissSupersampleCount:4]]
[2022.12.06-15.05.32:190][  0]LogConfig: Setting CVar [[r.LightMaxDrawDistanceScale:1]]
[2022.12.06-15.05.32:190][  0]LogConfig: Setting CVar [[r.CapsuleShadows:1]]
[2022.12.06-15.05.32:190][  0]LogConfig: Applying CVar settings from Section [PostProcessQuality@3] File [D:/Документы/Unreal Projects/HomeWork10_2_1/Saved/Config/Windows/Scalability.ini]
[2022.12.06-15.05.32:190][  0]LogConfig: Setting CVar [[r.MotionBlurQuality:4]]
[2022.12.06-15.05.32:190][  0]LogConfig: Setting CVar [[r.AmbientOcclusionMipLevelFactor:0.4]]
[2022.12.06-15.05.32:190][  0]LogConfig: Setting CVar [[r.AmbientOcclusionMaxQuality:100]]
[2022.12.06-15.05.32:190][  0]LogConfig: Setting CVar [[r.AmbientOcclusionLevels:-1]]
[2022.12.06-15.05.32:190][  0]LogConfig: Setting CVar [[r.AmbientOcclusionRadiusScale:1.0]]
[2022.12.06-15.05.32:191][  0]LogConfig: Setting CVar [[r.DepthOfFieldQuality:2]]
[2022.12.06-15.05.32:191][  0]LogConfig: Setting CVar [[r.RenderTargetPoolMin:400]]
[2022.12.06-15.05.32:191][  0]LogConfig: Setting CVar [[r.LensFlareQuality:2]]
[2022.12.06-15.05.32:191][  0]LogConfig: Setting CVar [[r.SceneColorFringeQuality:1]]
[2022.12.06-15.05.32:191][  0]LogConfig: Setting CVar [[r.EyeAdaptationQuality:2]]
[2022.12.06-15.05.32:191][  0]LogConfig: Setting CVar [[r.BloomQuality:5]]
[2022.12.06-15.05.32:191][  0]LogConfig: Setting CVar [[r.FastBlurThreshold:100]]
[2022.12.06-15.05.32:191][  0]LogConfig: Setting CVar [[r.Upscale.Quality:3]]
[2022.12.06-15.05.32:191][  0]LogConfig: Setting CVar [[r.Tonemapper.GrainQuantization:1]]
[2022.12.06-15.05.32:191][  0]LogConfig: Setting CVar [[r.LightShaftQuality:1]]
[2022.12.06-15.05.32:191][  0]LogConfig: Setting CVar [[r.Filter.SizeScale:1]]
[2022.12.06-15.05.32:191][  0]LogConfig: Setting CVar [[r.Tonemapper.Quality:5]]
[2022.12.06-15.05.32:191][  0]LogConfig: Setting CVar [[r.DOF.Gather.AccumulatorQuality:1        ; higher gathering accumulator quality]]
[2022.12.06-15.05.32:191][  0]LogConfig: Setting CVar [[r.DOF.Gather.PostfilterMethod:1          ; Median3x3 postfilering method]]
[2022.12.06-15.05.32:191][  0]LogConfig: Setting CVar [[r.DOF.Gather.EnableBokehSettings:0       ; no bokeh simulation when gathering]]
[2022.12.06-15.05.32:191][  0]LogConfig: Setting CVar [[r.DOF.Gather.RingCount:4                 ; medium number of samples when gathering]]
[2022.12.06-15.05.32:191][  0]LogConfig: Setting CVar [[r.DOF.Scatter.ForegroundCompositing:1    ; additive foreground scattering]]
[2022.12.06-15.05.32:191][  0]LogConfig: Setting CVar [[r.DOF.Scatter.BackgroundCompositing:2    ; additive background scattering]]
[2022.12.06-15.05.32:191][  0]LogConfig: Setting CVar [[r.DOF.Scatter.EnableBokehSettings:1      ; bokeh simulation when scattering]]
[2022.12.06-15.05.32:191][  0]LogConfig: Setting CVar [[r.DOF.Scatter.MaxSpriteRatio:0.1         ; only a maximum of 10% of scattered bokeh]]
[2022.12.06-15.05.32:191][  0]LogConfig: Setting CVar [[r.DOF.Recombine.Quality:1                ; cheap slight out of focus]]
[2022.12.06-15.05.32:191][  0]LogConfig: Setting CVar [[r.DOF.Recombine.EnableBokehSettings:0    ; no bokeh simulation on slight out of focus]]
[2022.12.06-15.05.32:191][  0]LogConfig: Setting CVar [[r.DOF.TemporalAAQuality:1                ; more stable temporal accumulation]]
[2022.12.06-15.05.32:191][  0]LogConfig: Setting CVar [[r.DOF.Kernel.MaxForegroundRadius:0.025]]
[2022.12.06-15.05.32:191][  0]LogConfig: Setting CVar [[r.DOF.Kernel.MaxBackgroundRadius:0.025]]
[2022.12.06-15.05.32:191][  0]LogConfig: Applying CVar settings from Section [TextureQuality@3] File [D:/Документы/Unreal Projects/HomeWork10_2_1/Saved/Config/Windows/Scalability.ini]
[2022.12.06-15.05.32:191][  0]LogConfig: Setting CVar [[r.Streaming.MipBias:0]]
[2022.12.06-15.05.32:191][  0]LogConfig: Setting CVar [[r.Streaming.AmortizeCPUToGPUCopy:0]]
[2022.12.06-15.05.32:191][  0]LogConfig: Setting CVar [[r.Streaming.MaxNumTexturesToStreamPerFrame:0]]
[2022.12.06-15.05.32:191][  0]LogConfig: Setting CVar [[r.Streaming.Boost:1]]
[2022.12.06-15.05.32:191][  0]LogConfig: Setting CVar [[r.MaxAnisotropy:8]]
[2022.12.06-15.05.32:191][  0]LogConfig: Setting CVar [[r.VT.MaxAnisotropy:8]]
[2022.12.06-15.05.32:191][  0]LogConfig: Setting CVar [[r.Streaming.LimitPoolSizeToVRAM:0]]
[2022.12.06-15.05.32:191][  0]LogConfig: Setting CVar [[r.Streaming.PoolSize:1000]]
[2022.12.06-15.05.32:191][  0]LogConfig: Setting CVar [[r.Streaming.MaxEffectiveScreenSize:0]]
[2022.12.06-15.05.32:191][  0]LogConfig: Applying CVar settings from Section [EffectsQuality@3] File [D:/Документы/Unreal Projects/HomeWork10_2_1/Saved/Config/Windows/Scalability.ini]
[2022.12.06-15.05.32:191][  0]LogConfig: Setting CVar [[r.TranslucencyLightingVolumeDim:64]]
[2022.12.06-15.05.32:191][  0]LogConfig: Setting CVar [[r.RefractionQuality:2]]
[2022.12.06-15.05.32:191][  0]LogConfig: Setting CVar [[r.SSR.Quality:3]]
[2022.12.06-15.05.32:191][  0]LogConfig: Setting CVar [[r.SSR.HalfResSceneColor:0]]
[2022.12.06-15.05.32:191][  0]LogConfig: Setting CVar [[r.SceneColorFormat:4]]
[2022.12.06-15.05.32:191][  0]LogConfig: Setting CVar [[r.DetailMode:2]]
[2022.12.06-15.05.32:191][  0]LogConfig: Setting CVar [[r.TranslucencyVolumeBlur:1]]
[2022.12.06-15.05.32:191][  0]LogConfig: Setting CVar [[r.MaterialQualityLevel:1 ; High quality]]
[2022.12.06-15.05.32:191][  0]LogConfig: Setting CVar [[r.AnisotropicMaterials:1]]
[2022.12.06-15.05.32:191][  0]LogConfig: Setting CVar [[r.SSS.Scale:1]]
[2022.12.06-15.05.32:191][  0]LogConfig: Setting CVar [[r.SSS.SampleSet:2]]
[2022.12.06-15.05.32:191][  0]LogConfig: Setting CVar [[r.SSS.Quality:1]]
[2022.12.06-15.05.32:191][  0]LogConfig: Setting CVar [[r.SSS.HalfRes:0]]
[2022.12.06-15.05.32:191][  0]LogConfig: Setting CVar [[r.SSGI.Quality:3]]
[2022.12.06-15.05.32:191][  0]LogConfig: Setting CVar [[r.EmitterSpawnRateScale:1.0]]
[2022.12.06-15.05.32:191][  0]LogConfig: Setting CVar [[r.ParticleLightQuality:2]]
[2022.12.06-15.05.32:191][  0]LogConfig: Setting CVar [[r.SkyAtmosphere.AerialPerspectiveLUT.FastApplyOnOpaque:1 ; Always have FastSkyLUT 1 in this case to avoid wrong sky]]
[2022.12.06-15.05.32:191][  0]LogConfig: Setting CVar [[r.SkyAtmosphere.AerialPerspectiveLUT.SampleCountMaxPerSlice:4]]
[2022.12.06-15.05.32:191][  0]LogConfig: Setting CVar [[r.SkyAtmosphere.AerialPerspectiveLUT.DepthResolution:16.0]]
[2022.12.06-15.05.32:191][  0]LogConfig: Setting CVar [[r.SkyAtmosphere.FastSkyLUT:1]]
[2022.12.06-15.05.32:191][  0]LogConfig: Setting CVar [[r.SkyAtmosphere.FastSkyLUT.SampleCountMin:4.0]]
[2022.12.06-15.05.32:191][  0]LogConfig: Setting CVar [[r.SkyAtmosphere.FastSkyLUT.SampleCountMax:128.0]]
[2022.12.06-15.05.32:191][  0]LogConfig: Setting CVar [[r.SkyAtmosphere.SampleCountMin:4.0]]
[2022.12.06-15.05.32:191][  0]LogConfig: Setting CVar [[r.SkyAtmosphere.SampleCountMax:128.0]]
[2022.12.06-15.05.32:191][  0]LogConfig: Setting CVar [[r.SkyAtmosphere.TransmittanceLUT.UseSmallFormat:0]]
[2022.12.06-15.05.32:191][  0]LogConfig: Setting CVar [[r.SkyAtmosphere.TransmittanceLUT.SampleCount:10.0]]
[2022.12.06-15.05.32:191][  0]LogConfig: Setting CVar [[r.SkyAtmosphere.MultiScatteringLUT.SampleCount:15.0]]
[2022.12.06-15.05.32:191][  0]LogConfig: Setting CVar [[r.SkyLight.RealTimeReflectionCapture:1]]
[2022.12.06-15.05.32:191][  0]LogConfig: Applying CVar settings from Section [FoliageQuality@3] File [D:/Документы/Unreal Projects/HomeWork10_2_1/Saved/Config/Windows/Scalability.ini]
[2022.12.06-15.05.32:191][  0]LogConfig: Setting CVar [[foliage.DensityScale:1.0]]
[2022.12.06-15.05.32:191][  0]LogConfig: Setting CVar [[grass.DensityScale:1.0]]
[2022.12.06-15.05.32:191][  0]LogConfig: Applying CVar settings from Section [ShadingQuality@3] File [D:/Документы/Unreal Projects/HomeWork10_2_1/Saved/Config/Windows/Scalability.ini]
[2022.12.06-15.05.32:191][  0]LogConfig: Setting CVar [[r.HairStrands.SkyLighting.IntegrationType:2]]
[2022.12.06-15.05.32:191][  0]LogConfig: Setting CVar [[r.HairStrands.SkyAO.SampleCount:4]]
[2022.12.06-15.05.32:191][  0]LogConfig: Setting CVar [[r.HairStrands.Visibility.MSAA.SamplePerPixel:4]]
[2022.12.06-15.05.32:191][  0]LogConfig: Applying CVar settings from Section [Startup] File [../../../Engine/Config/ConsoleVariables.ini]
[2022.12.06-15.05.32:191][  0]LogConfig: Setting CVar [[net.UseAdaptiveNetUpdateFrequency:0]]
[2022.12.06-15.05.32:191][  0]LogConfig: Setting CVar [[p.chaos.AllowCreatePhysxBodies:1]]
[2022.12.06-15.05.32:191][  0]LogConfig: Setting CVar [[fx.SkipVectorVMBackendOptimizations:1]]
[2022.12.06-15.05.32:191][  0]LogConfig: Applying CVar settings from Section [ConsoleVariables] File [D:/Документы/Unreal Projects/HomeWork10_2_1/Saved/Config/Windows/Engine.ini]
[2022.12.06-15.05.32:191][  0]LogConfig: Applying CVar settings from Section [ConsoleVariables] File [D:/Документы/Unreal Projects/HomeWork10_2_1/Saved/Config/Windows/Editor.ini]
[2022.12.06-15.05.32:192][  0]LogInit: Computer: MSI
[2022.12.06-15.05.32:192][  0]LogInit: User: Ruslan
[2022.12.06-15.05.32:192][  0]LogInit: CPU Page size=4096, Cores=4
[2022.12.06-15.05.32:192][  0]LogInit: High frequency timer resolution =10.000000 MHz
[2022.12.06-15.05.32:192][  0]LogMemory: Memory total: Physical=31.8GB (32GB approx)
[2022.12.06-15.05.32:192][  0]LogMemory: Platform Memory Stats for Windows
[2022.12.06-15.05.32:192][  0]LogMemory: Process Physical Memory: 143.58 MB used, 143.58 MB peak
[2022.12.06-15.05.32:192][  0]LogMemory: Process Virtual Memory: 128.41 MB used, 128.41 MB peak
[2022.12.06-15.05.32:192][  0]LogMemory: Physical Memory: 7747.61 MB used,  24863.00 MB free, 32610.61 MB total
[2022.12.06-15.05.32:192][  0]LogMemory: Virtual Memory: 134191896.00 MB used,  25832.62 MB free, 134217728.00 MB total
[2022.12.06-15.05.32:196][  0]LogWindows: WindowsPlatformFeatures enabled
[2022.12.06-15.05.32:231][  0]LogInit: Physics initialised using underlying interface: PhysX
[2022.12.06-15.05.32:231][  0]LogInit: Using OS detected language (ru-RU).
[2022.12.06-15.05.32:231][  0]LogInit: Using OS detected locale (ru-RU).
[2022.12.06-15.05.32:233][  0]LogTextLocalizationManager: No specific localization for 'ru-RU' exists, so the 'ru' localization will be used.
[2022.12.06-15.05.32:233][  0]LogTextLocalizationResource: LocRes '../../../Engine/Content/Localization/Editor/ru/Editor.locres' could not be opened for reading!
[2022.12.06-15.05.32:233][  0]LogTextLocalizationResource: LocRes '../../../Engine/Content/Localization/EditorTutorials/ru/EditorTutorials.locres' could not be opened for reading!
[2022.12.06-15.05.32:233][  0]LogTextLocalizationResource: LocRes '../../../Engine/Content/Localization/Keywords/ru/Keywords.locres' could not be opened for reading!
[2022.12.06-15.05.32:233][  0]LogTextLocalizationResource: LocRes '../../../Engine/Content/Localization/Category/ru/Category.locres' could not be opened for reading!
[2022.12.06-15.05.32:233][  0]LogTextLocalizationResource: LocRes '../../../Engine/Content/Localization/ToolTips/ru/ToolTips.locres' could not be opened for reading!
[2022.12.06-15.05.32:234][  0]LogTextLocalizationResource: LocRes '../../../Engine/Content/Localization/PropertyNames/ru/PropertyNames.locres' could not be opened for reading!
[2022.12.06-15.05.32:234][  0]LogTextLocalizationResource: LocRes '../../../Engine/Content/Localization/Engine/ru/Engine.locres' could not be opened for reading!
[2022.12.06-15.05.32:234][  0]LogInit: Setting process to per monitor DPI aware
[2022.12.06-15.05.32:243][  0]LogWindowsTextInputMethodSystem: Display: IME system deactivated.
[2022.12.06-15.05.32:256][  0]LogSlate: New Slate User Created.  User Index 0, Is Virtual User: 0
[2022.12.06-15.05.32:256][  0]LogSlate: Slate User Registered.  User Index 0, Is Virtual User: 0
[2022.12.06-15.05.32:432][  0]LogD3D11RHI: Loaded GFSDK_Aftermath_Lib.x64.dll
[2022.12.06-15.05.32:443][  0]LogHMD: Failed to initialize OpenVR with code 110
[2022.12.06-15.05.32:443][  0]LogD3D11RHI: D3D11 min allowed feature level: 11_0
[2022.12.06-15.05.32:443][  0]LogD3D11RHI: D3D11 max allowed feature level: 11_0
[2022.12.06-15.05.32:443][  0]LogD3D11RHI: D3D11 adapters:
[2022.12.06-15.05.32:535][  0]LogD3D11RHI:    0. 'NVIDIA GeForce GTX 1660 Ti' (Feature Level 11_0)
[2022.12.06-15.05.32:535][  0]LogD3D11RHI:       5979/0/16305 MB DedicatedVideo/DedicatedSystem/SharedSystem, Outputs:1, VendorId:0x10de
[2022.12.06-15.05.32:550][  0]LogD3D11RHI:    1. 'Intel(R) UHD Graphics 630' (Feature Level 11_0)
[2022.12.06-15.05.32:550][  0]LogD3D11RHI:       128/0/16305 MB DedicatedVideo/DedicatedSystem/SharedSystem, Outputs:0, VendorId:0x8086
[2022.12.06-15.05.32:552][  0]LogD3D11RHI:    2. 'Microsoft Basic Render Driver' (Feature Level 11_0)
[2022.12.06-15.05.32:552][  0]LogD3D11RHI:       0/0/16305 MB DedicatedVideo/DedicatedSystem/SharedSystem, Outputs:0, VendorId:0x1414
[2022.12.06-15.05.32:552][  0]LogD3D11RHI: Chosen D3D11 Adapter:
[2022.12.06-15.05.32:552][  0]LogD3D11RHI:     Description : NVIDIA GeForce GTX 1660 Ti
[2022.12.06-15.05.32:552][  0]LogD3D11RHI:     VendorId    : 10de
[2022.12.06-15.05.32:552][  0]LogD3D11RHI:     DeviceId    : 2191
[2022.12.06-15.05.32:552][  0]LogD3D11RHI:     SubSysId    : 129a1462
[2022.12.06-15.05.32:552][  0]LogD3D11RHI:     Revision    : 00a1
[2022.12.06-15.05.32:552][  0]LogD3D11RHI:     DedicatedVideoMemory : 6269435904 bytes
[2022.12.06-15.05.32:552][  0]LogD3D11RHI:     DedicatedSystemMemory : 0 bytes
[2022.12.06-15.05.32:552][  0]LogD3D11RHI:     SharedSystemMemory : 17097349120 bytes
[2022.12.06-15.05.32:552][  0]LogD3D11RHI:     AdapterLuid : 0 59947
[2022.12.06-15.05.32:556][  0]LogD3D11RHI: Creating new Direct3DDevice
[2022.12.06-15.05.32:556][  0]LogD3D11RHI:     GPU DeviceId: 0x2191 (for the marketing name, search the web for "GPU Device Id")
[2022.12.06-15.05.32:556][  0]LogWindows: EnumDisplayDevices:
[2022.12.06-15.05.32:556][  0]LogWindows:    0. 'Intel(R) UHD Graphics 630' (P:1 D:1)
[2022.12.06-15.05.32:556][  0]LogWindows:    1. 'Intel(R) UHD Graphics 630' (P:0 D:0)
[2022.12.06-15.05.32:556][  0]LogWindows:    2. 'Intel(R) UHD Graphics 630' (P:0 D:0)
[2022.12.06-15.05.32:556][  0]LogWindows:    3. 'NVIDIA GeForce GTX 1660 Ti' (P:0 D:0)
[2022.12.06-15.05.32:557][  0]LogWindows:    4. 'NVIDIA GeForce GTX 1660 Ti' (P:0 D:0)
[2022.12.06-15.05.32:557][  0]LogWindows:    5. 'NVIDIA GeForce GTX 1660 Ti' (P:0 D:0)
[2022.12.06-15.05.32:557][  0]LogWindows:    6. 'NVIDIA GeForce GTX 1660 Ti' (P:0 D:0)
[2022.12.06-15.05.32:557][  0]LogWindows: DebugString: PrimaryIsNotTheChoosenAdapter PrimaryIsNotTheChoosenAdapter PrimaryIsNotTheChoosenAdapter FoundDriverCount:4 
[2022.12.06-15.05.32:557][  0]LogD3D11RHI:     Adapter Name: NVIDIA GeForce GTX 1660 Ti
[2022.12.06-15.05.32:557][  0]LogD3D11RHI:   Driver Version: 527.37 (internal:31.0.15.2737, unified:527.37)
[2022.12.06-15.05.32:557][  0]LogD3D11RHI:      Driver Date: 11-26-2022
[2022.12.06-15.05.32:557][  0]LogRHI: Texture pool is 4185 MB (70% of 5979 MB)
[2022.12.06-15.05.32:557][  0]LogD3D11RHI: Creating D3DDevice using adapter:
[2022.12.06-15.05.32:557][  0]LogD3D11RHI:     Description : NVIDIA GeForce GTX 1660 Ti
[2022.12.06-15.05.32:557][  0]LogD3D11RHI:     VendorId    : 10de
[2022.12.06-15.05.32:557][  0]LogD3D11RHI:     DeviceId    : 2191
[2022.12.06-15.05.32:557][  0]LogD3D11RHI:     SubSysId    : 129a1462
[2022.12.06-15.05.32:557][  0]LogD3D11RHI:     Revision    : 00a1
[2022.12.06-15.05.32:557][  0]LogD3D11RHI:     DedicatedVideoMemory : 6269435904 bytes
[2022.12.06-15.05.32:557][  0]LogD3D11RHI:     DedicatedSystemMemory : 0 bytes
[2022.12.06-15.05.32:557][  0]LogD3D11RHI:     SharedSystemMemory : 17097349120 bytes
[2022.12.06-15.05.32:557][  0]LogD3D11RHI:     AdapterLuid : 0 59947
[2022.12.06-15.05.32:601][  0]LogD3D11RHI: RHI has support for 64 bit atomics
[2022.12.06-15.05.32:601][  0]LogD3D11RHI: Async texture creation enabled
[2022.12.06-15.05.32:602][  0]LogD3D11RHI: Array index from any shader is supported
[2022.12.06-15.05.32:625][  0]LogD3D11RHI: GPU Timing Frequency: 1000.000000 (Debug: 2 1)
[2022.12.06-15.05.32:658][  0]LogRHI: GeForceNow SDK initialized: 1
[2022.12.06-15.05.32:905][  0]LogTargetPlatformManager: Display: Loaded TargetPlatform 'AllDesktop'
[2022.12.06-15.05.32:922][  0]LogTargetPlatformManager: Display: Loaded TargetPlatform 'Android'
[2022.12.06-15.05.32:922][  0]LogTargetPlatformManager: Display: Loaded TargetPlatform 'Android_ASTC'
[2022.12.06-15.05.32:922][  0]LogTargetPlatformManager: Display: Loaded TargetPlatform 'Android_DXT'
[2022.12.06-15.05.32:922][  0]LogTargetPlatformManager: Display: Loaded TargetPlatform 'Android_ETC2'
[2022.12.06-15.05.32:922][  0]LogTargetPlatformManager: Display: Loaded TargetPlatform 'AndroidClient'
[2022.12.06-15.05.32:922][  0]LogTargetPlatformManager: Display: Loaded TargetPlatform 'Android_ASTCClient'
[2022.12.06-15.05.32:922][  0]LogTargetPlatformManager: Display: Loaded TargetPlatform 'Android_DXTClient'
[2022.12.06-15.05.32:922][  0]LogTargetPlatformManager: Display: Loaded TargetPlatform 'Android_ETC2Client'
[2022.12.06-15.05.32:922][  0]LogTargetPlatformManager: Display: Loaded TargetPlatform 'Android_Multi'
[2022.12.06-15.05.32:922][  0]LogTargetPlatformManager: Display: Loaded TargetPlatform 'Android_MultiClient'
[2022.12.06-15.05.32:936][  0]LogTargetPlatformManager: Display: Loaded TargetPlatform 'IOSClient'
[2022.12.06-15.05.32:936][  0]LogTargetPlatformManager: Display: Loaded TargetPlatform 'IOS'
[2022.12.06-15.05.32:943][  0]LogTargetPlatformManager: Display: Loaded TargetPlatform 'Linux'
[2022.12.06-15.05.32:947][  0]LogTargetPlatformManager: Display: Loaded TargetPlatform 'LinuxNoEditor'
[2022.12.06-15.05.32:951][  0]LogTargetPlatformManager: Display: Loaded TargetPlatform 'LinuxClient'
[2022.12.06-15.05.32:955][  0]LogTargetPlatformManager: Display: Loaded TargetPlatform 'LinuxServer'
[2022.12.06-15.05.32:962][  0]LogTargetPlatformManager: Display: Loaded TargetPlatform 'LinuxAArch64NoEditor'
[2022.12.06-15.05.32:965][  0]LogTargetPlatformManager: Display: Loaded TargetPlatform 'LinuxAArch64Client'
[2022.12.06-15.05.32:969][  0]LogTargetPlatformManager: Display: Loaded TargetPlatform 'LinuxAArch64Server'
[2022.12.06-15.05.32:988][  0]LogTargetPlatformManager: Display: Loaded TargetPlatform 'Lumin'
[2022.12.06-15.05.32:988][  0]LogTargetPlatformManager: Display: Loaded TargetPlatform 'LuminClient'
[2022.12.06-15.05.32:995][  0]LogTargetPlatformManager: Display: Loaded TargetPlatform 'MacNoEditor'
[2022.12.06-15.05.32:998][  0]LogTargetPlatformManager: Display: Loaded TargetPlatform 'Mac'
[2022.12.06-15.05.33:002][  0]LogTargetPlatformManager: Display: Loaded TargetPlatform 'MacClient'
[2022.12.06-15.05.33:005][  0]LogTargetPlatformManager: Display: Loaded TargetPlatform 'MacServer'
[2022.12.06-15.05.33:013][  0]LogTargetPlatformManager: Display: Loaded TargetPlatform 'TVOSClient'
[2022.12.06-15.05.33:013][  0]LogTargetPlatformManager: Display: Loaded TargetPlatform 'TVOS'
[2022.12.06-15.05.33:021][  0]LogTargetPlatformManager: Display: Loaded TargetPlatform 'WindowsNoEditor'
[2022.12.06-15.05.33:025][  0]LogTargetPlatformManager: Display: Loaded TargetPlatform 'Windows'
[2022.12.06-15.05.33:029][  0]LogTargetPlatformManager: Display: Loaded TargetPlatform 'WindowsClient'
[2022.12.06-15.05.33:033][  0]LogTargetPlatformManager: Display: Loaded TargetPlatform 'WindowsServer'
[2022.12.06-15.05.33:033][  0]LogTargetPlatformManager: Display: Building Assets For Windows
[2022.12.06-15.05.33:039][  0]LogAudioDebug: Display: Lib vorbis DLL was dynamically loaded.
[2022.12.06-15.05.33:062][  0]LogTextureFormatOodle: Display: Oodle Texture 2.9.0 init RDO Off
[2022.12.06-15.05.33:089][  0]LogRendererCore: Ray tracing is disabled. Reason: r.RayTracing=0.
[2022.12.06-15.05.33:089][  0]LogShaderCompilers: Guid format shader working directory is -9 characters bigger than the processId version (../../../../../Документы/Unreal Projects/HomeWork10_2_1/Intermediate/Shaders/WorkingDirectory/14280/).
[2022.12.06-15.05.33:089][  0]LogShaderCompilers: Cleaned the shader compiler working directory 'C:/Users/Ruslan/AppData/Local/Temp/UnrealShaderWorkingDir/29DACAF140DAF6A4D86735B9378AB7E3/'.
[2022.12.06-15.05.33:089][  0]LogXGEController: Cannot use XGE Controller as Incredibuild is not installed on this machine.
[2022.12.06-15.05.33:089][  0]LogShaderCompilers: Cannot use XGE Shader Compiler as Incredibuild is not installed on this machine.
[2022.12.06-15.05.33:089][  0]LogShaderCompilers: Display: Using Local Shader Compiler.
[2022.12.06-15.05.33:774][  0]LogDerivedDataCache: Display: Max Cache Size: 512 MB
[2022.12.06-15.05.33:818][  0]LogDerivedDataCache: Loaded boot cache 0.04s 94MB C:/Users/Ruslan/AppData/Local/UnrealEngine/4.27/DerivedDataCache/Boot.ddc.
[2022.12.06-15.05.33:818][  0]LogDerivedDataCache: Display: Loaded Boot cache: C:/Users/Ruslan/AppData/Local/UnrealEngine/4.27/DerivedDataCache/Boot.ddc
[2022.12.06-15.05.33:818][  0]LogDerivedDataCache: FDerivedDataBackendGraph:  Pak pak cache file ../../../../../Документы/Unreal Projects/HomeWork10_2_1/DerivedDataCache/DDC.ddp not found, will not use a pak cache.
[2022.12.06-15.05.33:818][  0]LogDerivedDataCache: Unable to find inner node Pak for hierarchical cache Hierarchy.
[2022.12.06-15.05.33:818][  0]LogDerivedDataCache: FDerivedDataBackendGraph:  CompressedPak pak cache file ../../../../../Документы/Unreal Projects/HomeWork10_2_1/DerivedDataCache/Compressed.ddp not found, will not use a pak cache.
[2022.12.06-15.05.33:818][  0]LogDerivedDataCache: Unable to find inner node CompressedPak for hierarchical cache Hierarchy.
[2022.12.06-15.05.33:833][  0]LogDerivedDataCache: Display: Pak cache opened for reading ../../../Engine/DerivedDataCache/Compressed.ddp.
[2022.12.06-15.05.33:833][  0]LogDerivedDataCache: FDerivedDataBackendGraph:  EnterprisePak pak cache file ../../../Enterprise/DerivedDataCache/Compressed.ddp not found, will not use a pak cache.
[2022.12.06-15.05.33:833][  0]LogDerivedDataCache: Unable to find inner node EnterprisePak for hierarchical cache Hierarchy.
[2022.12.06-15.05.33:838][  0]LogDerivedDataCache: Speed tests for C:/Users/Ruslan/AppData/Local/UnrealEngine/Common/DerivedDataCache took 0.01 seconds
[2022.12.06-15.05.33:838][  0]LogDerivedDataCache: Display: Performance to C:/Users/Ruslan/AppData/Local/UnrealEngine/Common/DerivedDataCache: Latency=0.02ms. RandomReadSpeed=1307.39MBs, RandomWriteSpeed=211.44MBs. Assigned SpeedClass 'Local'
[2022.12.06-15.05.33:840][  0]LogDerivedDataCache: Using Local data cache path C:/Users/Ruslan/AppData/Local/UnrealEngine/Common/DerivedDataCache: Writable
[2022.12.06-15.05.33:840][  0]LogDerivedDataCache: Shared data cache path not found in *engine.ini, will not use an Shared cache.
[2022.12.06-15.05.33:840][  0]LogDerivedDataCache: Unable to find inner node Shared for hierarchical cache Hierarchy.
[2022.12.06-15.05.33:884][  0]LogSlate: Using FreeType 2.10.0
[2022.12.06-15.05.33:884][  0]LogSlate: SlateFontServices - WITH_FREETYPE: 1, WITH_HARFBUZZ: 1
[2022.12.06-15.05.33:906][  0]LogAssetRegistry: FAssetRegistry took 0.0021 seconds to start up
[2022.12.06-15.05.34:115][  0]LogInit: Selected Device Profile: [Windows]
[2022.12.06-15.05.34:115][  0]LogInit: Active device profile: [000001FAC0D8C900][000001FABD8A8E80 49] Windows
[2022.12.06-15.05.34:115][  0]LogInit: Profiles: [000001FAC0D8C900][000001FABD8A8E80 49] Windows, [000001FAC0D5B800][000001FAC132D000 49] WindowsNoEditor, [000001FAC0D8F500][000001FAC1331180 49] WindowsServer, [000001FAC0D58E00][000001FAC1335300 49] WindowsClient, [000001FAC0D8F800][000001FAC1339480 49] IOS, [000001FAC0D5A800][000001FAC133D600 49] iPadAir, [000001FAC0D8E000][000001FAB864B780 49] iPadAir2, [000001FAC0CCCA00][000001FAB8653A40 49] IPadPro, [000001FAC0CCCB00][000001FAB864FA80 49] iPadAir3, [000001FAC0D59900][000001FABA413C00 49] iPadAir4, [000001FAC0CCF400][000001FAC1702200 49] iPadMini2, [000001FAC0D5AA00][000001FAC1736380 49] iPadMini3, [000001FAC0CCD700][000001FAC1746500 49] iPadMini4, [000001FAC0D8D100][000001FAC174A680 49] iPadMini5, [000001FAC0D08300][000001FAC0FAE8C0 49] iPhone6, [000001FAC0D08400][000001FABD8AC900 49] iPodTouch6, [000001FAC0CA7F00][000001FAC10D4B40 49] iPhone7, [000001FAC0CA7E00][000001FAC10D0B80 49] iPodTouch7, [000001FAC0D5A000][000001FAC10E6D00 49] iPhone5S, [000001FAC0CA5A00][000001FAC10EAE80 49] iPhone6Plus, [000001FAC0D08200][000001FAC10EF000 49] iPhone6S, [000001FAC0CA4600][000001FAC10F3180 49] iPhone6SPlus, [000001FAC0D0A900][000001FAC10F7300 49] iPhone7Plus, [000001FAC0CA7100][000001FAC12D3480 49] iPhoneSE, [000001FAC0D0A200][000001FAC12EB600 49] iPhone8, [000001FAC0CA7B00][000001FAB8607780 49] iPhone8Plus, [000001FAC0D08A00][000001FABA407900 49] iPhoneX, [000001FAC0CA5400][000001FABA40BA80 49] iPhoneXS, [000001FAC0D0B900][000001FABA40FC00 49] iPhoneXSMax, [000001FAC0CA4900][000001FAB8612200 49] iPhoneXR, [000001FAC0D0AF00][000001FAC12EE380 49] iPhone11, [000001FAC0CA5300][000001FAC12F2500 49] iPhone11Pro, [000001FAC0D09000][000001FAC12F6680 49] iPhone11ProMax, [000001FAC0CA6A00][000001FAC12FA800 49] iPhoneSE2, [000001FAC0D09400][000001FAC10E2940 49] iPhone12Mini, [000001FAC0CA6400][000001FAC131CA80 49] iPhone12, [000001FAC0D08D00][000001FAC1320BC0 49] iPhone12Pro, [000001FAC0CA6B00][000001FAC1324D00 49] iPhone12ProMax, [000001FAC0D0B000][000001FAC11E6E80 49] iPadPro105, [000001FAC0CA4700][000001FAC11EB000 49] iPadPro129, [000001FAC0D0A800][000001FAC11EF180 49] iPadPro97, [000001FAC0CA6600][000001FAC11F3300 49] iPadPro2_129, [000001FAC0D0BC00][000001FAC11F7480 49] iPad5, [000001FAC0CA6200][000001FAC11FB600 49] iPad6, [000001FAC0D08F00][000001FAC11FF780 49] iPad7, [000001FAC0CA6D00][000001FAC1203900 49] iPad8, [000001FAC0D09100][000001FAC1207A80 49] iPadPro11, [000001FAC0CA5600][000001FAC120BC00 49] iPadPro2_11, [000001FAC0D0B400][000001FAC15E0200 49] iPadPro3_129, [000001FAC0CA6800][000001FAC15E4380 49] iPadPro4_129, [000001FAC0D0BA00][000001FAC15E8500 49] AppleTV, [000001FAC0CA6100][000001FAC15EC680 49] AppleTV4K, [000001FAC0D09F00][000001FAC15F0800 49] TVOS, [000001FAC0CA7400][000001FAC15F4980 49] Mac, [000001FAC0D0B800][000001FAC15F8B00 49] MacClient, [000001FAC0CA5E00][000001FAC1328C40 49] MacNoEditor, [000001FAC0D0BF00][000001FAC15FCD80 49] MacServer, [000001FAC0CA7500][000001FAC1600EC0 49] Linux, [000001FAC0D08C00][000001FAC1609040 49] LinuxAArch64, [000001FAC0CA6F00][000001FAC160D1C0 49] LinuxNoEditor, [000001FAC0D08B00][000001FAC1611340 49] LinuxAArch64NoEditor, [000001FAC0CA7700][000001FAC16154C0 49] LinuxClient, [000001FAC0D09A00][000001FAC1619640 49] LinuxAArch64Client, [000001FAC0CA5000][000001FAC161D7C0 49] LinuxServer, [000001FAC0D0A500][000001FAC1621940 49] LinuxAArch64Server, [000001FAC0CA5900][000001FAC1625AC0 49] Android, [000001FAC0D09300][000001FAC16280C0 49] Android_Low, [000001FAC0CA6700][000001FAC162C240 49] Android_Mid, [000001FAC0D0AB00][000001FAC16303C0 49] Android_High, [000001FAC0CA7800][000001FAC1634540 49] Android_Default, [000001FAC0D09600][000001FAB86166C0 49] Android_Adreno4xx, [000001FAC0CA5500][000001FAB860E840 49] Android_Adreno5xx_Low, [000001FAC0CCF600][000001FAC16389C0 49] Android_Adreno5xx, [000001FAC0D59800][000001FAB860AB40 49] Android_Adreno6xx, [000001FAC0CCD200][000001FAC16EACC0 49] Android_Adreno6xx_Vulkan, [000001FAC0D5BC00][000001FAC1604E00 49] Android_Mali_T6xx, [000001FAC0CCD100][000001FAB86C0F40 49] Android_Mali_T7xx, [000001FAC0D59600][000001FABD873080 49] Android_Mali_T8xx, [000001FAC0CCDE00][000001FABD8771C0 49] Android_Mali_G71, [000001FAC0D58500][000001FABD87F340 49] Android_Mali_G72, [000001FAC0CCC800][000001FABD8834C0 49] Android_Mali_G72_Vulkan, [000001FAC0D59300][000001FABD887640 49] Android_Mali_G76, [000001FAC0CCC100][000001FABD88B7C0 49] Android_Mali_G76_Vulkan, [000001FAC0D59F00][000001FABD88F940 49] Android_Mali_G77, [000001FAC0CCD000][000001FAC115DAC0 49] Android_Mali_G77_Vulkan, [000001FAC0D58A00][000001FAC11600C0 49] Android_Mali_G78, [000001FAC0CCEC00][000001FAC1164240 49] Android_Mali_G78_Vulkan, [000001FAC0D5B600][000001FAC11683C0 49] Android_Mali_G710, [000001FAC0CCEA00][000001FAC116C540 49] Android_Mali_G710_Vulkan, [000001FAC0D5BF00][000001FAC11706C0 49] Android_Vulkan_SM5, [000001FAC0CCFB00][000001FAC1174840 49] Android_PowerVR_G6xxx, [000001FAC0D5BB00][000001FAC11789C0 49] Android_PowerVR_GT7xxx, [000001FAC0CCF900][000001FAC117CB40 49] Android_PowerVR_GE8xxx, [000001FAC0D58C00][000001FAC1180CC0 49] Android_PowerVR_GM9xxx, [000001FAC0CCE700][000001FAC1184E40 49] Android_PowerVR_GM9xxx_Vulkan, [000001FAC0D5A700][000001FABD87AF80 49] Android_TegraK1, [000001FAC0CCC900][000001FAC11890C0 49] Android_Unknown_Vulkan, [000001FAC0D59D00][000001FAC118D200 49] Lumin, [000001FAC0CCC500][000001FAC1191340 49] Lumin_Desktop, [000001FAC0D5B300][000001FAC11994C0 49] HoloLens, 
[2022.12.06-15.05.34:227][  0]LogMeshReduction: Using QuadricMeshReduction for automatic static mesh reduction
[2022.12.06-15.05.34:227][  0]LogMeshReduction: Using SimplygonMeshReduction for automatic skeletal mesh reduction
[2022.12.06-15.05.34:227][  0]LogMeshReduction: Using ProxyLODMeshReduction for automatic mesh merging
[2022.12.06-15.05.34:227][  0]LogMeshReduction: No distributed automatic mesh merging module available
[2022.12.06-15.05.34:227][  0]LogMeshMerging: No distributed automatic mesh merging module available
[2022.12.06-15.05.34:241][  0]LogNetVersion: HomeWork10_2_1 1.0.0, NetCL: 17155196, EngineNetVer: 17, GameNetVer: 0 (Checksum: 1188444887)
[2022.12.06-15.05.34:588][  0]LogTexture: Default maximum texture size for cubemaps generated from long-lat sources has been changed from 512 to unlimited. In order to preserve old behaiour for '/Engine/MapTemplates/Sky/DaylightAmbientCubemap.DaylightAmbientCubemap', its maximum texture size has been explicitly set to 512.
[2022.12.06-15.05.34:631][  0]LogHMD: PokeAHoleMaterial loaded successfully
[2022.12.06-15.05.34:636][  0]LogUObjectArray: 17178 objects as part of root set at end of initial load.
[2022.12.06-15.05.34:636][  0]LogUObjectAllocator: 4302048 out of 0 bytes used by permanent object pool.
[2022.12.06-15.05.34:636][  0]LogUObjectArray: CloseDisregardForGC: 0/0 objects in disregard for GC pool
[2022.12.06-15.05.34:857][  0]LogNiagaraDebuggerClient: Niagara Debugger Client Initialized | Session: D777C65D44F2B1B5201B7381F43DF7A1 | Instance: 31A26F4E4AC3D9A7089DA59A7F754CAB (MSI-14280).
[2022.12.06-15.05.34:885][  0]LogPython: Using Python 3.7.7
[2022.12.06-15.05.35:421][  0]LogTcpMessaging: Initializing TcpMessaging bridge
[2022.12.06-15.05.35:425][  0]LogUdpMessaging: Initializing bridge on interface 0.0.0.0:0 to multicast group 230.0.0.1:6666.
[2022.12.06-15.05.35:546][  0]SourceControl: Source control is disabled
[2022.12.06-15.05.35:832][  0]LogUProjectInfo: Found projects:
[2022.12.06-15.05.35:998][  0]LogOpenImageDenoise: OIDN starting up
[2022.12.06-15.05.36:032][  0]LogAndroidPermission: UAndroidPermissionCallbackProxy::GetInstance
[2022.12.06-15.05.36:051][  0]LogAudioCaptureCore: Display: No Audio Capture implementations found. Audio input will be silent.
[2022.12.06-15.05.36:051][  0]LogAudioCaptureCore: Display: No Audio Capture implementations found. Audio input will be silent.
[2022.12.06-15.05.36:153][  0]LogCollectionManager: Loaded 0 collections in 0.000560 seconds
[2022.12.06-15.05.36:172][  0]LogFileCache: Scanning file cache for directory 'D:/Документы/Unreal Projects/HomeWork10_2_1/Saved/Collections/' took 0.00s
[2022.12.06-15.05.36:172][  0]LogFileCache: Scanning file cache for directory 'D:/Документы/Unreal Projects/HomeWork10_2_1/Content/Developers/Ruslan/Collections/' took 0.00s
[2022.12.06-15.05.36:172][  0]LogFileCache: Scanning file cache for directory 'D:/Документы/Unreal Projects/HomeWork10_2_1/Content/Collections/' took 0.00s
[2022.12.06-15.05.36:172][  0]LogOcInput: OculusInput pre-init called
[2022.12.06-15.05.36:398][  0]LogEngine: Initializing Engine...
[2022.12.06-15.05.36:401][  0]LogHMD: Failed to enumerate extensions. Please check that you have a valid OpenXR runtime installed.
[2022.12.06-15.05.36:401][  0]LogHMD: Failed to initialize OpenVR with code 110
[2022.12.06-15.05.36:401][  0]LogMagicLeap: Warning: VR disabled because ZI is not enabled.  To enable, in the editor, Edit -> Project Settings -> Plugins -> Magic Leap Plugin -> Enable Zero Iteration
[2022.12.06-15.05.36:402][  0]LogStats: UGameplayTagsManager::InitializeManager -  0.000 s
[2022.12.06-15.05.36:499][  0]LogInit: Initializing FReadOnlyCVARCache
[2022.12.06-15.05.36:505][  0]LogAIModule: Creating AISystem for world Untitled
[2022.12.06-15.05.36:511][  0]LogAudio: Display: Initializing Audio Device Manager...
[2022.12.06-15.05.36:514][  0]LogAudio: Display: Loading Default Audio Settings Objects...
[2022.12.06-15.05.36:514][  0]LogAudio: Display: No default SoundConcurrencyObject specified (or failed to load).
[2022.12.06-15.05.36:515][  0]LogAudio: Display: Audio Device Manager Initialized
[2022.12.06-15.05.36:515][  0]LogAudio: Display: Creating Audio Device:                 Id: 1, Scope: Shared, Realtime: True
[2022.12.06-15.05.36:515][  0]LogAudioMixer: Display: Audio Mixer Platform Settings:
[2022.12.06-15.05.36:515][  0]LogAudioMixer: Display: 	Sample Rate:						  48000
[2022.12.06-15.05.36:515][  0]LogAudioMixer: Display: 	Callback Buffer Frame Size Requested: 1024
[2022.12.06-15.05.36:515][  0]LogAudioMixer: Display: 	Callback Buffer Frame Size To Use:	  1024
[2022.12.06-15.05.36:515][  0]LogAudioMixer: Display: 	Number of buffers to queue:			  2
[2022.12.06-15.05.36:515][  0]LogAudioMixer: Display: 	Max Channels (voices):				  32
[2022.12.06-15.05.36:515][  0]LogAudioMixer: Display: 	Number of Async Source Workers:		  0
[2022.12.06-15.05.36:515][  0]LogAudio: Display: AudioDevice MaxSources: 32
[2022.12.06-15.05.36:515][  0]LogAudio: Display: Audio Spatialization Plugin: None (built-in).
[2022.12.06-15.05.36:515][  0]LogAudio: Display: Audio Reverb Plugin: None (built-in).
[2022.12.06-15.05.36:515][  0]LogAudio: Display: Audio Occlusion Plugin: None (built-in).
[2022.12.06-15.05.36:515][  0]LogAudioMixer: Display: Initializing audio mixer.
[2022.12.06-15.05.36:536][  0]LogAudioMixer: Display: 0: FrontLeft
[2022.12.06-15.05.36:536][  0]LogAudioMixer: Display: 1: FrontRight
[2022.12.06-15.05.36:549][  0]LogAudioMixer: Display: Using Audio Device Наушники (JBL Inspire 500 Stereo)
[2022.12.06-15.05.36:552][  0]LogAudioMixer: Display: Initializing Sound Submixes...
[2022.12.06-15.05.36:554][  0]LogAudioMixer: Display: Creating Master Submix 'MasterSubmixDefault'
[2022.12.06-15.05.36:554][  0]LogAudioMixer: Display: Creating Master Submix 'MasterReverbSubmixDefault'
[2022.12.06-15.05.36:555][  0]LogAudioMixer: Display: Creating Master Submix 'MasterEQSubmixDefault'
[2022.12.06-15.05.36:555][  0]LogAudioMixer: FMixerPlatformXAudio2::StartAudioStream() called
[2022.12.06-15.05.36:555][  0]LogAudioMixer: Display: Output buffers initialized: Frames=1024, Channels=2, Samples=2048
[2022.12.06-15.05.36:555][  0]LogAudioMixer: Display: Starting AudioMixerPlatformInterface::RunInternal()
[2022.12.06-15.05.36:556][  0]LogAudioMixer: Display: FMixerPlatformXAudio2::SubmitBuffer() called for the first time
[2022.12.06-15.05.36:556][  0]LogInit: FAudioDevice initialized.
[2022.12.06-15.05.36:556][  0]LogAudio: Display: Audio Device (ID: 1) registered with world 'Untitled'.
[2022.12.06-15.05.36:556][  0]LogNetVersion: Set ProjectVersion to 1.0.0.0. Version Checksum will be recalculated on next use.
[2022.12.06-15.05.36:618][  0]LogDerivedDataCache: Saved boot cache 0.06s 94MB C:/Users/Ruslan/AppData/Local/UnrealEngine/4.27/DerivedDataCache/Boot.ddc.
[2022.12.06-15.05.36:618][  0]LogInit: Texture streaming: Enabled
[2022.12.06-15.05.36:628][  0]LogAnalytics: Display: [UEEditor.Rocket.Release] APIServer = https://datarouter.ol.epicgames.com/. AppVersion = 4.27.2-18319896+++UE4+Release-4.27
[2022.12.06-15.05.36:631][  0]LogEngineSessionManager: EngineSessionManager initialized
[2022.12.06-15.05.36:631][  0]LogEditorSessionSummary: Verbose: Initializing EditorSessionSummaryWriter for editor session tracking
[2022.12.06-15.05.36:634][  0]LogEditorSessionSummary: EditorSessionSummaryWriter initialized
[2022.12.06-15.05.36:654][  0]LogInit: Transaction tracking system initialized
[2022.12.06-15.05.36:671][  0]BlueprintLog: New page: Editor Load
[2022.12.06-15.05.36:716][  0]LocalizationService: Localization service is disabled
[2022.12.06-15.05.36:734][  0]TimingProfiler: Initialize
[2022.12.06-15.05.36:734][  0]TimingProfiler: OnSessionChanged
[2022.12.06-15.05.36:735][  0]LoadingProfiler: Initialize
[2022.12.06-15.05.36:735][  0]LoadingProfiler: OnSessionChanged
[2022.12.06-15.05.36:735][  0]NetworkingProfiler: Initialize
[2022.12.06-15.05.36:735][  0]NetworkingProfiler: OnSessionChanged
[2022.12.06-15.05.36:735][  0]MemoryProfiler: Initialize
[2022.12.06-15.05.36:735][  0]MemoryProfiler: OnSessionChanged
[2022.12.06-15.05.36:856][  0]LogCook: Display: CookSettings for Memory: MemoryMaxUsedVirtual 0MiB, MemoryMaxUsedPhysical 16384MiB, MemoryMinFreeVirtual 0MiB, MemoryMinFreePhysical 1024MiB
[2022.12.06-15.05.36:856][  0]LogCook: Display: Mobile HDR setting 1
[2022.12.06-15.05.36:872][  0]LogFileCache: Scanning file cache for directory 'D:/Документы/Unreal Projects/HomeWork10_2_1/Content/' took 0.00s
[2022.12.06-15.05.37:193][  0]LogInit: Display: Engine is initialized. Leaving FEngineLoop::Init()
[2022.12.06-15.05.37:196][  0]LogUnrealEdMisc: Loading editor; pre map load, took 5.977
[2022.12.06-15.05.37:196][  0]Cmd: MAP LOAD FILE="../../../../../Документы/Unreal Projects/HomeWork10_2_1/Content/Lvl1.umap" TEMPLATE=0 SHOWPROGRESS=1 FEATURELEVEL=3
[2022.12.06-15.05.37:197][  0]LightingResults: New page: Lighting Build
[2022.12.06-15.05.37:198][  0]LogWorld: UWorld::CleanupWorld for Untitled, bSessionEnded=true, bCleanupResources=true
[2022.12.06-15.05.37:198][  0]LogSlate: InvalidateAllWidgets triggered.  All widgets were invalidated
[2022.12.06-15.05.37:198][  0]MapCheck: New page: Map Check
[2022.12.06-15.05.37:198][  0]LightingResults: New page: Lighting Build
[2022.12.06-15.05.37:202][  0]LogAudio: Display: Audio Device unregistered from world 'None'.
[2022.12.06-15.05.37:204][  0]LogUObjectHash: Compacting FUObjectHashTables data took   0.69ms
[2022.12.06-15.05.38:337][  0]LogWindows: Error: === Critical error: ===
[2022.12.06-15.05.38:337][  0]LogWindows: Error: 
[2022.12.06-15.05.38:337][  0]LogWindows: Error: Fatal error!
[2022.12.06-15.05.38:337][  0]LogWindows: Error: 
[2022.12.06-15.05.38:337][  0]LogWindows: Error: Unhandled Exception: EXCEPTION_STACK_OVERFLOW
[2022.12.06-15.05.38:337][  0]LogWindows: Error: 
[2022.12.06-15.05.38:337][  0]LogWindows: Error: [Callstack] 0x00007ffb29332fa8 UE4Editor-Core.dll!UnknownFunction []
[2022.12.06-15.05.38:337][  0]LogWindows: Error: [Callstack] 0x00007ffb29338526 UE4Editor-Core.dll!UnknownFunction []
[2022.12.06-15.05.38:337][  0]LogWindows: Error: [Callstack] 0x00007ffb41334612 UE4Editor-CoreUObject.dll!UnknownFunction []
[2022.12.06-15.05.38:337][  0]LogWindows: Error: [Callstack] 0x00007ffb41349168 UE4Editor-CoreUObject.dll!UnknownFunction []
[2022.12.06-15.05.38:337][  0]LogWindows: Error: [Callstack] 0x00007ffb413489b9 UE4Editor-CoreUObject.dll!UnknownFunction []
[2022.12.06-15.05.38:337][  0]LogWindows: Error: [Callstack] 0x00007ffb413234d6 UE4Editor-CoreUObject.dll!UnknownFunction []
[2022.12.06-15.05.38:337][  0]LogWindows: Error: [Callstack] 0x00007ffb411b7855 UE4Editor-CoreUObject.dll!UnknownFunction []
[2022.12.06-15.05.38:337][  0]LogWindows: Error: [Callstack] 0x00007ffb412152d2 UE4Editor-CoreUObject.dll!UnknownFunction []
[2022.12.06-15.05.38:337][  0]LogWindows: Error: [Callstack] 0x00007ffb412138c7 UE4Editor-CoreUObject.dll!UnknownFunction []
[2022.12.06-15.05.38:337][  0]LogWindows: Error: [Callstack] 0x00007ffb4121539d UE4Editor-CoreUObject.dll!UnknownFunction []
[2022.12.06-15.05.38:337][  0]LogWindows: Error: [Callstack] 0x00007ffb412138c7 UE4Editor-CoreUObject.dll!UnknownFunction []
[2022.12.06-15.05.38:337][  0]LogWindows: Error: [Callstack] 0x00007ffb411c0602 UE4Editor-CoreUObject.dll!UnknownFunction []
[2022.12.06-15.05.38:337][  0]LogWindows: Error: [Callstack] 0x00007ffb411c2b1b UE4Editor-CoreUObject.dll!UnknownFunction []
[2022.12.06-15.05.38:337][  0]LogWindows: Error: [Callstack] 0x00007ffb411e8bbc UE4Editor-CoreUObject.dll!UnknownFunction []
[2022.12.06-15.05.38:337][  0]LogWindows: Error: [Callstack] 0x00007ffb412fcd66 UE4Editor-CoreUObject.dll!UnknownFunction []
[2022.12.06-15.05.38:337][  0]LogWindows: Error: [Callstack] 0x00007ffb411b790d UE4Editor-CoreUObject.dll!UnknownFunction []
[2022.12.06-15.05.38:337][  0]LogWindows: Error: [Callstack] 0x00007ffb412152d2 UE4Editor-CoreUObject.dll!UnknownFunction []
[2022.12.06-15.05.38:337][  0]LogWindows: Error: [Callstack] 0x00007ffb412138c7 UE4Editor-CoreUObject.dll!UnknownFunction []
[2022.12.06-15.05.38:337][  0]LogWindows: Error: [Callstack] 0x00007ffb4121539d UE4Editor-CoreUObject.dll!UnknownFunction []
[2022.12.06-15.05.38:337][  0]LogWindows: Error: [Callstack] 0x00007ffb412138c7 UE4Editor-CoreUObject.dll!UnknownFunction []
[2022.12.06-15.05.38:338][  0]LogWindows: Error: [Callstack] 0x00007ffb411c0602 UE4Editor-CoreUObject.dll!UnknownFunction []
[2022.12.06-15.05.38:338][  0]LogWindows: Error: [Callstack] 0x00007ffb411c2b1b UE4Editor-CoreUObject.dll!UnknownFunction []
[2022.12.06-15.05.38:338][  0]LogWindows: Error: [Callstack] 0x00007ffb411e8bbc UE4Editor-CoreUObject.dll!UnknownFunction []
[2022.12.06-15.05.38:338][  0]LogWindows: Error: [Callstack] 0x00007ffb412fcd66 UE4Editor-CoreUObject.dll!UnknownFunction []
[2022.12.06-15.05.38:338][  0]LogWindows: Error: [Callstack] 0x00007ffb411b790d UE4Editor-CoreUObject.dll!UnknownFunction []
[2022.12.06-15.05.38:338][  0]LogWindows: Error: [Callstack] 0x00007ffb412152d2 UE4Editor-CoreUObject.dll!UnknownFunction []
[2022.12.06-15.05.38:338][  0]LogWindows: Error: [Callstack] 0x00007ffb412138c7 UE4Editor-CoreUObject.dll!UnknownFunction []
[2022.12.06-15.05.38:338][  0]LogWindows: Error: [Callstack] 0x00007ffb4121539d UE4Editor-CoreUObject.dll!UnknownFunction []
[2022.12.06-15.05.38:338][  0]LogWindows: Error: [Callstack] 0x00007ffb412138c7 UE4Editor-CoreUObject.dll!UnknownFunction []
[2022.12.06-15.05.38:338][  0]LogWindows: Error: [Callstack] 0x00007ffb411c3969 UE4Editor-CoreUObject.dll!UnknownFunction []
[2022.12.06-15.05.38:338][  0]LogWindows: Error: [Callstack] 0x00007ffb411e6ae0 UE4Editor-CoreUObject.dll!UnknownFunction []
[2022.12.06-15.05.38:338][  0]LogWindows: Error: [Callstack] 0x00007ffb411c0b56 UE4Editor-CoreUObject.dll!UnknownFunction []
[2022.12.06-15.05.38:338][  0]LogWindows: Error: [Callstack] 0x00007ffb411e691a UE4Editor-CoreUObject.dll!UnknownFunction []
[2022.12.06-15.05.38:338][  0]LogWindows: Error: [Callstack] 0x00007ffb411c10ba UE4Editor-CoreUObject.dll!UnknownFunction []
[2022.12.06-15.05.38:338][  0]LogWindows: Error: [Callstack] 0x00007ffb411c2b1b UE4Editor-CoreUObject.dll!UnknownFunction []
[2022.12.06-15.05.38:338][  0]LogWindows: Error: [Callstack] 0x00007ffb411e8bbc UE4Editor-CoreUObject.dll!UnknownFunction []
[2022.12.06-15.05.38:338][  0]LogWindows: Error: [Callstack] 0x00007ffb412fcd66 UE4Editor-CoreUObject.dll!UnknownFunction []
[2022.12.06-15.05.38:338][  0]LogWindows: Error: [Callstack] 0x00007ffb411b790d UE4Editor-CoreUObject.dll!UnknownFunction []
[2022.12.06-15.05.38:338][  0]LogWindows: Error: [Callstack] 0x00007ffb412152d2 UE4Editor-CoreUObject.dll!UnknownFunction []
[2022.12.06-15.05.38:338][  0]LogWindows: Error: [Callstack] 0x00007ffb412138c7 UE4Editor-CoreUObject.dll!UnknownFunction []
[2022.12.06-15.05.38:338][  0]LogWindows: Error: [Callstack] 0x00007ffb4121539d UE4Editor-CoreUObject.dll!UnknownFunction []
[2022.12.06-15.05.38:338][  0]LogWindows: Error: [Callstack] 0x00007ffb412138c7 UE4Editor-CoreUObject.dll!UnknownFunction []
[2022.12.06-15.05.38:338][  0]LogWindows: Error: [Callstack] 0x00007ffb411c0602 UE4Editor-CoreUObject.dll!UnknownFunction []
[2022.12.06-15.05.38:338][  0]LogWindows: Error: [Callstack] 0x00007ffb411c2b1b UE4Editor-CoreUObject.dll!UnknownFunction []
[2022.12.06-15.05.38:338][  0]LogWindows: Error: [Callstack] 0x00007ffb411e8bbc UE4Editor-CoreUObject.dll!UnknownFunction []
[2022.12.06-15.05.38:338][  0]LogWindows: Error: [Callstack] 0x00007ffb412fcd66 UE4Editor-CoreUObject.dll!UnknownFunction []
[2022.12.06-15.05.38:338][  0]LogWindows: Error: [Callstack] 0x00007ffb411b790d UE4Editor-CoreUObject.dll!UnknownFunction []
[2022.12.06-15.05.38:338][  0]LogWindows: Error: [Callstack] 0x00007ffb412152d2 UE4Editor-CoreUObject.dll!UnknownFunction []
[2022.12.06-15.05.38:338][  0]LogWindows: Error: [Callstack] 0x00007ffb412138c7 UE4Editor-CoreUObject.dll!UnknownFunction []
[2022.12.06-15.05.38:338][  0]LogWindows: Error: [Callstack] 0x00007ffb4121539d UE4Editor-CoreUObject.dll!UnknownFunction []
[2022.12.06-15.05.38:338][  0]LogWindows: Error: [Callstack] 0x00007ffb412138c7 UE4Editor-CoreUObject.dll!UnknownFunction []
[2022.12.06-15.05.38:338][  0]LogWindows: Error: [Callstack] 0x00007ffb411c3969 UE4Editor-CoreUObject.dll!UnknownFunction []
[2022.12.06-15.05.38:338][  0]LogWindows: Error: [Callstack] 0x00007ffb411e6ae0 UE4Editor-CoreUObject.dll!UnknownFunction []
[2022.12.06-15.05.38:338][  0]LogWindows: Error: [Callstack] 0x00007ffb411c0b56 UE4Editor-CoreUObject.dll!UnknownFunction []
[2022.12.06-15.05.38:338][  0]LogWindows: Error: [Callstack] 0x00007ffb411e691a UE4Editor-CoreUObject.dll!UnknownFunction []
[2022.12.06-15.05.38:338][  0]LogWindows: Error: [Callstack] 0x00007ffb411c10ba UE4Editor-CoreUObject.dll!UnknownFunction []
[2022.12.06-15.05.38:338][  0]LogWindows: Error: [Callstack] 0x00007ffb411c2b1b UE4Editor-CoreUObject.dll!UnknownFunction []
[2022.12.06-15.05.38:338][  0]LogWindows: Error: [Callstack] 0x00007ffb411e8bbc UE4Editor-CoreUObject.dll!UnknownFunction []
[2022.12.06-15.05.38:338][  0]LogWindows: Error: [Callstack] 0x00007ffb412fcd66 UE4Editor-CoreUObject.dll!UnknownFunction []
[2022.12.06-15.05.38:338][  0]LogWindows: Error: [Callstack] 0x00007ffb411b790d UE4Editor-CoreUObject.dll!UnknownFunction []
[2022.12.06-15.05.38:338][  0]LogWindows: Error: [Callstack] 0x00007ffb412152d2 UE4Editor-CoreUObject.dll!UnknownFunction []
[2022.12.06-15.05.38:338][  0]LogWindows: Error: [Callstack] 0x00007ffb412138c7 UE4Editor-CoreUObject.dll!UnknownFunction []
[2022.12.06-15.05.38:338][  0]LogWindows: Error: [Callstack] 0x00007ffb4121539d UE4Editor-CoreUObject.dll!UnknownFunction []
[2022.12.06-15.05.38:338][  0]LogWindows: Error: [Callstack] 0x00007ffb412138c7 UE4Editor-CoreUObject.dll!UnknownFunction []
[2022.12.06-15.05.38:338][  0]LogWindows: Error: [Callstack] 0x00007ffb411c0602 UE4Editor-CoreUObject.dll!UnknownFunction []
[2022.12.06-15.05.38:338][  0]LogWindows: Error: [Callstack] 0x00007ffb411c2b1b UE4Editor-CoreUObject.dll!UnknownFunction []
[2022.12.06-15.05.38:338][  0]LogWindows: Error: [Callstack] 0x00007ffb411e8bbc UE4Editor-CoreUObject.dll!UnknownFunction []
[2022.12.06-15.05.38:338][  0]LogWindows: Error: [Callstack] 0x00007ffb412fcd66 UE4Editor-CoreUObject.dll!UnknownFunction []
[2022.12.06-15.05.38:338][  0]LogWindows: Error: [Callstack] 0x00007ffb411b790d UE4Editor-CoreUObject.dll!UnknownFunction []
[2022.12.06-15.05.38:338][  0]LogWindows: Error: [Callstack] 0x00007ffb412152d2 UE4Editor-CoreUObject.dll!UnknownFunction []
[2022.12.06-15.05.38:338][  0]LogWindows: Error: [Callstack] 0x00007ffb412138c7 UE4Editor-CoreUObject.dll!UnknownFunction []
[2022.12.06-15.05.38:338][  0]LogWindows: Error: [Callstack] 0x00007ffb4121539d UE4Editor-CoreUObject.dll!UnknownFunction []
[2022.12.06-15.05.38:338][  0]LogWindows: Error: [Callstack] 0x00007ffb412138c7 UE4Editor-CoreUObject.dll!UnknownFunction []
[2022.12.06-15.05.38:338][  0]LogWindows: Error: [Callstack] 0x00007ffb411c3969 UE4Editor-CoreUObject.dll!UnknownFunction []
[2022.12.06-15.05.38:338][  0]LogWindows: Error: [Callstack] 0x00007ffb411e6ae0 UE4Editor-CoreUObject.dll!UnknownFunction []
[2022.12.06-15.05.38:338][  0]LogWindows: Error: [Callstack] 0x00007ffb411c0b56 UE4Editor-CoreUObject.dll!UnknownFunction []
[2022.12.06-15.05.38:338][  0]LogWindows: Error: [Callstack] 0x00007ffb411e691a UE4Editor-CoreUObject.dll!UnknownFunction []
[2022.12.06-15.05.38:338][  0]LogWindows: Error: [Callstack] 0x00007ffb411c10ba UE4Editor-CoreUObject.dll!UnknownFunction []
[2022.12.06-15.05.38:338][  0]LogWindows: Error: [Callstack] 0x00007ffb411c2b1b UE4Editor-CoreUObject.dll!UnknownFunction []
[2022.12.06-15.05.38:338][  0]LogWindows: Error: [Callstack] 0x00007ffb411e8bbc UE4Editor-CoreUObject.dll!UnknownFunction []
[2022.12.06-15.05.38:338][  0]LogWindows: Error: [Callstack] 0x00007ffb412fcd66 UE4Editor-CoreUObject.dll!UnknownFunction []
[2022.12.06-15.05.38:338][  0]LogWindows: Error: [Callstack] 0x00007ffb411b790d UE4Editor-CoreUObject.dll!UnknownFunction []
[2022.12.06-15.05.38:338][  0]LogWindows: Error: [Callstack] 0x00007ffb412152d2 UE4Editor-CoreUObject.dll!UnknownFunction []
[2022.12.06-15.05.38:338][  0]LogWindows: Error: [Callstack] 0x00007ffb412138c7 UE4Editor-CoreUObject.dll!UnknownFunction []
[2022.12.06-15.05.38:338][  0]LogWindows: Error: [Callstack] 0x00007ffb4121539d UE4Editor-CoreUObject.dll!UnknownFunction []
[2022.12.06-15.05.38:338][  0]LogWindows: Error: [Callstack] 0x00007ffb412138c7 UE4Editor-CoreUObject.dll!UnknownFunction []
[2022.12.06-15.05.38:338][  0]LogWindows: Error: [Callstack] 0x00007ffb411c0602 UE4Editor-CoreUObject.dll!UnknownFunction []
[2022.12.06-15.05.38:338][  0]LogWindows: Error: [Callstack] 0x00007ffb411c2b1b UE4Editor-CoreUObject.dll!UnknownFunction []
[2022.12.06-15.05.38:338][  0]LogWindows: Error: [Callstack] 0x00007ffb411e8bbc UE4Editor-CoreUObject.dll!UnknownFunction []
[2022.12.06-15.05.38:338][  0]LogWindows: Error: [Callstack] 0x00007ffb412fcd66 UE4Editor-CoreUObject.dll!UnknownFunction []
[2022.12.06-15.05.38:338][  0]LogWindows: Error: [Callstack] 0x00007ffb411b790d UE4Editor-CoreUObject.dll!UnknownFunction []
[2022.12.06-15.05.38:338][  0]LogWindows: Error: [Callstack] 0x00007ffb412152d2 UE4Editor-CoreUObject.dll!UnknownFunction []
[2022.12.06-15.05.38:338][  0]LogWindows: Error: [Callstack] 0x00007ffb412138c7 UE4Editor-CoreUObject.dll!UnknownFunction []
[2022.12.06-15.05.38:338][  0]LogWindows: Error: [Callstack] 0x00007ffb4121539d UE4Editor-CoreUObject.dll!UnknownFunction []
[2022.12.06-15.05.38:338][  0]LogWindows: Error: [Callstack] 0x00007ffb412138c7 UE4Editor-CoreUObject.dll!UnknownFunction []
[2022.12.06-15.05.38:338][  0]LogWindows: Error: [Callstack] 0x00007ffb411c3969 UE4Editor-CoreUObject.dll!UnknownFunction []
[2022.12.06-15.05.38:338][  0]LogWindows: Error: [Callstack] 0x00007ffb411e6ae0 UE4Editor-CoreUObject.dll!UnknownFunction []
[2022.12.06-15.05.38:338][  0]LogWindows: Error: [Callstack] 0x00007ffb411c0b56 UE4Editor-CoreUObject.dll!UnknownFunction []
[2022.12.06-15.05.38:338][  0]LogWindows: Error: [Callstack] 0x00007ffb411e691a UE4Editor-CoreUObject.dll!UnknownFunction []
[2022.12.06-15.05.38:338][  0]LogWindows: Error: [Callstack] 0x00007ffb411c10ba UE4Editor-CoreUObject.dll!UnknownFunction []
[2022.12.06-15.05.38:338][  0]LogWindows: Error: 
[2022.12.06-15.05.38:341][  0]LogExit: Executing StaticShutdownAfterError
[2022.12.06-15.05.38:342][  0]LogWindows: FPlatformMisc::RequestExit(1)
[2022.12.06-15.05.38:342][  0]LogWindows: FPlatformMisc::RequestExitWithStatus(1, 3)
[2022.12.06-15.05.38:342][  0]LogCore: Engine exit requested (reason: Win RequestExit)
[2022.12.06-15.05.38:384][  0]Log file closed, 12/06/22 18:05:38
